<svg width="1145" height="563" viewBox="0 0 1145 563" fill="none" xmlns="http://www.w3.org/2000/svg">
<path d="M98.1023 225.745C76.0652 203.918 38.8705 211.892 27.718 240.835L-32.5952 397.359C-44.8807 429.243 -16.8663 462.028 16.543 454.865L196.034 416.384C229.443 409.222 241.556 367.834 217.28 343.789L98.1023 225.745Z" fill="#E7EDF1"/>
<path opacity="0.1" d="M475.586 46.5992C464.279 35.0431 444.788 39.2219 439.211 54.3975L407.085 141.83C401.11 158.093 415.406 174.561 432.347 170.929L529.618 150.075C546.559 146.443 552.848 125.562 540.731 113.178L475.586 46.5992Z" fill="url(#paint0_linear)"/>
<path opacity="0.1" d="M1027.59 336.599C1016.28 325.043 996.788 329.222 991.211 344.398L959.085 431.83C953.11 448.093 967.406 464.561 984.347 460.929L1081.62 440.075C1098.56 436.443 1104.85 415.562 1092.73 403.178L1027.59 336.599Z" fill="url(#paint1_linear)"/>
<defs>
<linearGradient id="paint0_linear" x1="644.888" y1="248.483" x2="441.195" y2="355.063" gradientUnits="userSpaceOnUse">
<stop stop-color="#FFBF61"/>
<stop offset="0.758361" stop-color="#FE8618"/>
<stop offset="1" stop-color="#FF396D"/>
</linearGradient>
<linearGradient id="paint1_linear" x1="1196.89" y1="538.483" x2="993.195" y2="645.063" gradientUnits="userSpaceOnUse">
<stop stop-color="#FFBF61"/>
<stop offset="0.758361" stop-color="#FE8618"/>
<stop offset="1" stop-color="#FF396D"/>
</linearGradient>
</defs>
</svg>
