<svg width="1440" height="390" viewBox="0 0 1440 390" fill="none" xmlns="http://www.w3.org/2000/svg">
<path d="M1440 389.24V0C1440 0 1281.18 120.405 900 249C518.823 377.595 0 389.24 0 389.24H1440Z" fill="url(#paint0_linear)"/>
<defs>
<linearGradient id="paint0_linear" x1="-220.768" y1="471.25" x2="906.013" y2="1203.71" gradientUnits="userSpaceOnUse">
<stop stop-color="#FFBF61"/>
<stop offset="0.758361" stop-color="#FE8618"/>
<stop offset="1" stop-color="#FF396D"/>
</linearGradient>
</defs>
</svg>
