<svg width="297" height="55" viewBox="0 0 297 55" fill="none" xmlns="http://www.w3.org/2000/svg">
<path d="M42.984 42.624C47.592 38.784 51.264 35.592 54 33.048C56.736 30.456 59.016 27.768 60.84 24.984C62.664 22.2 63.576 19.464 63.576 16.776C63.576 14.328 63 12.408 61.848 11.016C60.696 9.62399 58.92 8.92799 56.52 8.92799C54.12 8.92799 52.272 9.74399 50.976 11.376C49.68 12.96 49.008 15.144 48.96 17.928H39.168C39.36 12.168 41.064 7.79999 44.28 4.82399C47.544 1.84799 51.672 0.359985 56.664 0.359985C62.136 0.359985 66.336 1.82399 69.264 4.75199C72.192 7.63199 73.656 11.448 73.656 16.2C73.656 19.944 72.648 23.52 70.632 26.928C68.616 30.336 66.312 33.312 63.72 35.856C61.128 38.352 57.744 41.376 53.568 44.928H74.808V53.28H39.24V45.792L42.984 42.624Z" fill="url(#paint0_linear)"/>
<path d="M81.1597 27.072C81.1597 18.768 82.6477 12.264 85.6237 7.55999C88.6477 2.85599 93.6397 0.503988 100.6 0.503988C107.56 0.503988 112.528 2.85599 115.504 7.55999C118.528 12.264 120.04 18.768 120.04 27.072C120.04 35.424 118.528 41.976 115.504 46.728C112.528 51.48 107.56 53.856 100.6 53.856C93.6397 53.856 88.6477 51.48 85.6237 46.728C82.6477 41.976 81.1597 35.424 81.1597 27.072ZM110.104 27.072C110.104 23.52 109.864 20.544 109.384 18.144C108.952 15.696 108.04 13.704 106.648 12.168C105.304 10.632 103.288 9.86399 100.6 9.86399C97.9117 9.86399 95.8717 10.632 94.4797 12.168C93.1357 13.704 92.2237 15.696 91.7437 18.144C91.3117 20.544 91.0957 23.52 91.0957 27.072C91.0957 30.72 91.3117 33.792 91.7437 36.288C92.1757 38.736 93.0877 40.728 94.4797 42.264C95.8717 43.752 97.9117 44.496 100.6 44.496C103.288 44.496 105.328 43.752 106.72 42.264C108.112 40.728 109.024 38.736 109.456 36.288C109.888 33.792 110.104 30.72 110.104 27.072Z" fill="url(#paint1_linear)"/>
<path d="M127.707 27.072C127.707 18.768 129.195 12.264 132.171 7.55999C135.195 2.85599 140.187 0.503988 147.147 0.503988C154.107 0.503988 159.075 2.85599 162.051 7.55999C165.075 12.264 166.587 18.768 166.587 27.072C166.587 35.424 165.075 41.976 162.051 46.728C159.075 51.48 154.107 53.856 147.147 53.856C140.187 53.856 135.195 51.48 132.171 46.728C129.195 41.976 127.707 35.424 127.707 27.072ZM156.651 27.072C156.651 23.52 156.411 20.544 155.931 18.144C155.499 15.696 154.587 13.704 153.195 12.168C151.851 10.632 149.835 9.86399 147.147 9.86399C144.459 9.86399 142.419 10.632 141.027 12.168C139.683 13.704 138.771 15.696 138.291 18.144C137.859 20.544 137.643 23.52 137.643 27.072C137.643 30.72 137.859 33.792 138.291 36.288C138.723 38.736 139.635 40.728 141.027 42.264C142.419 43.752 144.459 44.496 147.147 44.496C149.835 44.496 151.875 43.752 153.267 42.264C154.659 40.728 155.571 38.736 156.003 36.288C156.435 33.792 156.651 30.72 156.651 27.072Z" fill="url(#paint2_linear)"/>
<path d="M174.253 27.072C174.253 18.768 175.741 12.264 178.717 7.55999C181.741 2.85599 186.733 0.503988 193.693 0.503988C200.653 0.503988 205.621 2.85599 208.597 7.55999C211.621 12.264 213.133 18.768 213.133 27.072C213.133 35.424 211.621 41.976 208.597 46.728C205.621 51.48 200.653 53.856 193.693 53.856C186.733 53.856 181.741 51.48 178.717 46.728C175.741 41.976 174.253 35.424 174.253 27.072ZM203.197 27.072C203.197 23.52 202.957 20.544 202.477 18.144C202.045 15.696 201.133 13.704 199.741 12.168C198.397 10.632 196.381 9.86399 193.693 9.86399C191.005 9.86399 188.965 10.632 187.573 12.168C186.229 13.704 185.317 15.696 184.837 18.144C184.405 20.544 184.189 23.52 184.189 27.072C184.189 30.72 184.405 33.792 184.837 36.288C185.269 38.736 186.181 40.728 187.573 42.264C188.965 43.752 191.005 44.496 193.693 44.496C196.381 44.496 198.421 43.752 199.813 42.264C201.205 40.728 202.117 38.736 202.549 36.288C202.981 33.792 203.197 30.72 203.197 27.072Z" fill="url(#paint3_linear)"/>
<path d="M231.192 46.92H226.656V51.576H223.488V46.92H218.952V43.992H223.488V39.336H226.656V43.992H231.192V46.92Z" fill="url(#paint4_linear)"/>
<path d="M252.195 42.288C251.811 41.584 251.283 41.048 250.611 40.68C249.939 40.312 249.155 40.128 248.259 40.128C247.267 40.128 246.387 40.352 245.619 40.8C244.851 41.248 244.251 41.888 243.819 42.72C243.387 43.552 243.171 44.512 243.171 45.6C243.171 46.72 243.387 47.696 243.819 48.528C244.267 49.36 244.883 50 245.667 50.448C246.451 50.896 247.363 51.12 248.403 51.12C249.683 51.12 250.731 50.784 251.547 50.112C252.363 49.424 252.899 48.472 253.155 47.256H247.395V44.688H256.467V47.616C256.243 48.784 255.763 49.864 255.027 50.856C254.291 51.848 253.339 52.648 252.171 53.256C251.019 53.848 249.723 54.144 248.283 54.144C246.667 54.144 245.203 53.784 243.891 53.064C242.595 52.328 241.571 51.312 240.819 50.016C240.083 48.72 239.715 47.248 239.715 45.6C239.715 43.952 240.083 42.48 240.819 41.184C241.571 39.872 242.595 38.856 243.891 38.136C245.203 37.4 246.659 37.032 248.259 37.032C250.147 37.032 251.787 37.496 253.179 38.424C254.571 39.336 255.531 40.624 256.059 42.288H252.195Z" fill="url(#paint5_linear)"/>
<path d="M264.737 54.168C263.569 54.168 262.513 53.968 261.569 53.568C260.641 53.168 259.905 52.592 259.361 51.84C258.817 51.088 258.537 50.2 258.521 49.176H262.121C262.169 49.864 262.409 50.408 262.841 50.808C263.289 51.208 263.897 51.408 264.665 51.408C265.449 51.408 266.065 51.224 266.513 50.856C266.961 50.472 267.185 49.976 267.185 49.368C267.185 48.872 267.033 48.464 266.729 48.144C266.425 47.824 266.041 47.576 265.577 47.4C265.129 47.208 264.505 47 263.705 46.776C262.617 46.456 261.729 46.144 261.041 45.84C260.369 45.52 259.785 45.048 259.289 44.424C258.809 43.784 258.569 42.936 258.569 41.88C258.569 40.888 258.817 40.024 259.313 39.288C259.809 38.552 260.505 37.992 261.401 37.608C262.297 37.208 263.321 37.008 264.473 37.008C266.201 37.008 267.601 37.432 268.673 38.28C269.761 39.112 270.361 40.28 270.473 41.784H266.777C266.745 41.208 266.497 40.736 266.033 40.368C265.585 39.984 264.985 39.792 264.233 39.792C263.577 39.792 263.049 39.96 262.649 40.296C262.265 40.632 262.073 41.12 262.073 41.76C262.073 42.208 262.217 42.584 262.505 42.888C262.809 43.176 263.177 43.416 263.609 43.608C264.057 43.784 264.681 43.992 265.481 44.232C266.569 44.552 267.457 44.872 268.145 45.192C268.833 45.512 269.425 45.992 269.921 46.632C270.417 47.272 270.665 48.112 270.665 49.152C270.665 50.048 270.433 50.88 269.969 51.648C269.505 52.416 268.825 53.032 267.929 53.496C267.033 53.944 265.969 54.168 264.737 54.168Z" fill="url(#paint6_linear)"/>
<path d="M284.978 37.248V39.96H280.514V54H277.154V39.96H272.69V37.248H284.978Z" fill="url(#paint7_linear)"/>
<path d="M295.349 37.536L296.549 39.696L293.429 40.824L296.549 41.952L295.301 44.184L292.709 42.048L293.261 45.36H290.765L291.293 42.048L288.725 44.232L287.405 41.928L290.525 40.8L287.429 39.72L288.653 37.512L291.317 39.624L290.765 36.288H293.285L292.709 39.624L295.349 37.536Z" fill="url(#paint8_linear)"/>
<path d="M27.7682 13.9949V9H0V13.9949H8.83533C12.1221 13.9949 14.8964 16.0877 15.9415 18.9898H0V23.9847H15.9415C15.4233 25.4412 14.462 26.7034 13.1896 27.5978C11.9172 28.4921 10.3962 28.9748 8.83533 28.9795H0V35.0084L14.1012 48.9591H21.2401L6.09385 33.9744H8.83533C11.7433 33.9706 14.561 32.9748 16.8134 31.1551C19.0657 29.3353 20.6149 26.8028 21.1997 23.9847H27.7682V18.9898H21.1997C20.8128 17.1721 20.0154 15.4646 18.8672 13.9949H27.7682Z" fill="#EFA460"/>
<defs>
<linearGradient id="paint0_linear" x1="358.554" y1="-25" x2="48.0927" y2="-183.643" gradientUnits="userSpaceOnUse">
<stop stop-color="#FFBF61"/>
<stop offset="0.472514" stop-color="#FE8618"/>
<stop offset="1" stop-color="#FF396D"/>
</linearGradient>
<linearGradient id="paint1_linear" x1="358.554" y1="-25" x2="48.0927" y2="-183.643" gradientUnits="userSpaceOnUse">
<stop stop-color="#FFBF61"/>
<stop offset="0.472514" stop-color="#FE8618"/>
<stop offset="1" stop-color="#FF396D"/>
</linearGradient>
<linearGradient id="paint2_linear" x1="358.554" y1="-25" x2="48.0927" y2="-183.643" gradientUnits="userSpaceOnUse">
<stop stop-color="#FFBF61"/>
<stop offset="0.472514" stop-color="#FE8618"/>
<stop offset="1" stop-color="#FF396D"/>
</linearGradient>
<linearGradient id="paint3_linear" x1="358.554" y1="-25" x2="48.0927" y2="-183.643" gradientUnits="userSpaceOnUse">
<stop stop-color="#FFBF61"/>
<stop offset="0.472514" stop-color="#FE8618"/>
<stop offset="1" stop-color="#FF396D"/>
</linearGradient>
<linearGradient id="paint4_linear" x1="358.554" y1="-25" x2="48.0927" y2="-183.643" gradientUnits="userSpaceOnUse">
<stop stop-color="#FFBF61"/>
<stop offset="0.472514" stop-color="#FE8618"/>
<stop offset="1" stop-color="#FF396D"/>
</linearGradient>
<linearGradient id="paint5_linear" x1="358.554" y1="-25" x2="48.0927" y2="-183.643" gradientUnits="userSpaceOnUse">
<stop stop-color="#FFBF61"/>
<stop offset="0.472514" stop-color="#FE8618"/>
<stop offset="1" stop-color="#FF396D"/>
</linearGradient>
<linearGradient id="paint6_linear" x1="358.554" y1="-25" x2="48.0927" y2="-183.643" gradientUnits="userSpaceOnUse">
<stop stop-color="#FFBF61"/>
<stop offset="0.472514" stop-color="#FE8618"/>
<stop offset="1" stop-color="#FF396D"/>
</linearGradient>
<linearGradient id="paint7_linear" x1="358.554" y1="-25" x2="48.0927" y2="-183.643" gradientUnits="userSpaceOnUse">
<stop stop-color="#FFBF61"/>
<stop offset="0.472514" stop-color="#FE8618"/>
<stop offset="1" stop-color="#FF396D"/>
</linearGradient>
<linearGradient id="paint8_linear" x1="358.554" y1="-25" x2="48.0927" y2="-183.643" gradientUnits="userSpaceOnUse">
<stop stop-color="#FFBF61"/>
<stop offset="0.472514" stop-color="#FE8618"/>
<stop offset="1" stop-color="#FF396D"/>
</linearGradient>
</defs>
</svg>
