<svg width="296" height="105" viewBox="0 0 296 105" fill="none" xmlns="http://www.w3.org/2000/svg">
<path d="M20.6053 10.2709C20.6053 11.0206 20.5554 11.6953 20.4557 12.295H5.31025C5.43491 13.7944 5.95845 14.969 6.88089 15.8186C7.80333 16.6683 8.93768 17.0931 10.2839 17.0931C12.2285 17.0931 13.6122 16.2559 14.4349 14.5816H20.0817C19.4834 16.5808 18.3366 18.2302 16.6413 19.5296C14.946 20.8041 12.8643 21.4414 10.3961 21.4414C8.40167 21.4414 6.60665 21.004 5.01108 20.1294C3.44044 19.2297 2.20637 17.9678 1.30886 16.3434C0.436288 14.7191 0 12.8448 0 10.7207C0 8.57154 0.436288 6.6848 1.30886 5.06046C2.18144 3.43611 3.40305 2.18662 4.97369 1.31197C6.54432 0.437325 8.3518 0 10.3961 0C12.3657 0 14.1233 0.424829 15.669 1.27449C17.2396 2.12414 18.4488 3.33616 19.2964 4.91052C20.169 6.4599 20.6053 8.24668 20.6053 10.2709ZM15.1828 8.77147C15.1579 7.42201 14.6718 6.34744 13.7244 5.54776C12.777 4.7231 11.6177 4.31076 10.2465 4.31076C8.95014 4.31076 7.85319 4.7106 6.95568 5.51028C6.08311 6.28497 5.54709 7.37203 5.34765 8.77147H15.1828Z" fill="#064372"/>
<path d="M23.0804 10.6457C23.0804 8.54655 23.4918 6.6848 24.3145 5.06046C25.1621 3.43611 26.2965 2.18662 27.7175 1.31197C29.1635 0.437325 30.7716 0 32.5416 0C34.0874 0 35.4336 0.312375 36.5804 0.937123C37.7522 1.56187 38.6871 2.34905 39.3851 3.29867V0.337365H44.658V21.104H39.3851V18.0677C38.712 19.0423 37.7771 19.8545 36.5804 20.5042C35.4087 21.129 34.05 21.4414 32.5043 21.4414C30.7591 21.4414 29.1635 20.9915 27.7175 20.0919C26.2965 19.1923 25.1621 17.9303 24.3145 16.3059C23.4918 14.6566 23.0804 12.7699 23.0804 10.6457ZM39.3851 10.7207C39.3851 9.44619 39.1358 8.35913 38.6372 7.45949C38.1386 6.53487 37.4655 5.83515 36.6178 5.36034C35.7702 4.86054 34.8602 4.61064 33.8879 4.61064C32.9156 4.61064 32.0181 4.84805 31.1954 5.32285C30.3727 5.79766 29.6995 6.49738 29.176 7.42201C28.6774 8.32165 28.4281 9.39621 28.4281 10.6457C28.4281 11.8952 28.6774 12.9948 29.176 13.9444C29.6995 14.869 30.3727 15.5812 31.1954 16.081C32.043 16.5808 32.9405 16.8307 33.8879 16.8307C34.8602 16.8307 35.7702 16.5933 36.6178 16.1185C37.4655 15.6187 38.1386 14.919 38.6372 14.0194C39.1358 13.0947 39.3851 11.9952 39.3851 10.7207Z" fill="#064372"/>
<path d="M54.558 16.7932H63.7949V21.104H48.6121V16.8682L57.6619 4.64813H48.6494V0.337365H63.6827V4.57316L54.558 16.7932Z" fill="#064372"/>
<path d="M87.6685 0.337365L74.8416 30.925H69.2696L73.7572 20.5792L65.4552 0.337365H71.3264L76.674 14.844L82.0965 0.337365H87.6685Z" fill="#064372"/>
<path d="M95.7262 3.33615C96.3993 2.38654 97.3218 1.59936 98.4935 0.974608C99.6902 0.324869 101.049 0 102.57 0C104.34 0 105.935 0.437325 107.356 1.31197C108.802 2.18662 109.937 3.43611 110.759 5.06046C111.607 6.65981 112.031 8.52156 112.031 10.6457C112.031 12.7699 111.607 14.6566 110.759 16.3059C109.937 17.9303 108.802 19.1923 107.356 20.0919C105.935 20.9915 104.34 21.4414 102.57 21.4414C101.049 21.4414 99.7027 21.129 98.5309 20.5042C97.3841 19.8795 96.4492 19.0923 95.7262 18.1427V31H90.4908V0.337365H95.7262V3.33615ZM106.683 10.6457C106.683 9.39621 106.422 8.32165 105.898 7.42201C105.399 6.49738 104.726 5.79766 103.879 5.32285C103.056 4.84805 102.158 4.61064 101.186 4.61064C100.239 4.61064 99.3412 4.86054 98.4935 5.36034C97.6708 5.83515 96.9977 6.53487 96.4741 7.45949C95.9755 8.38412 95.7262 9.47118 95.7262 10.7207C95.7262 11.9702 95.9755 13.0572 96.4741 13.9819C96.9977 14.9065 97.6708 15.6187 98.4935 16.1185C99.3412 16.5933 100.239 16.8307 101.186 16.8307C102.158 16.8307 103.056 16.5808 103.879 16.081C104.726 15.5812 105.399 14.869 105.898 13.9444C106.422 13.0198 106.683 11.9202 106.683 10.6457Z" fill="#064372"/>
<path d="M114.489 10.6457C114.489 8.54655 114.9 6.6848 115.723 5.06046C116.571 3.43611 117.705 2.18662 119.126 1.31197C120.572 0.437325 122.18 0 123.95 0C125.496 0 126.842 0.312375 127.989 0.937123C129.161 1.56187 130.096 2.34905 130.794 3.29867V0.337365H136.067V21.104H130.794V18.0677C130.121 19.0423 129.186 19.8545 127.989 20.5042C126.817 21.129 125.459 21.4414 123.913 21.4414C122.168 21.4414 120.572 20.9915 119.126 20.0919C117.705 19.1923 116.571 17.9303 115.723 16.3059C114.9 14.6566 114.489 12.7699 114.489 10.6457ZM130.794 10.7207C130.794 9.44619 130.545 8.35913 130.046 7.45949C129.547 6.53487 128.874 5.83515 128.027 5.36034C127.179 4.86054 126.269 4.61064 125.297 4.61064C124.324 4.61064 123.427 4.84805 122.604 5.32285C121.781 5.79766 121.108 6.49738 120.585 7.42201C120.086 8.32165 119.837 9.39621 119.837 10.6457C119.837 11.8952 120.086 12.9948 120.585 13.9444C121.108 14.869 121.781 15.5812 122.604 16.081C123.452 16.5808 124.349 16.8307 125.297 16.8307C126.269 16.8307 127.179 16.5933 128.027 16.1185C128.874 15.6187 129.547 14.919 130.046 14.0194C130.545 13.0947 130.794 11.9952 130.794 10.7207Z" fill="#064372"/>
<path d="M161 0.337365L148.173 30.925H142.601L147.089 20.5792L138.787 0.337365H144.658L150.006 14.844L155.428 0.337365H161Z" fill="#064372"/>
<path d="M1 76.0265C1 70.4847 2.24789 65.5347 4.74366 61.1765C7.29369 56.7646 10.7389 53.348 15.0794 50.9269C19.4741 48.4519 24.3843 47.2144 29.8099 47.2144C36.1578 47.2144 41.7191 48.8285 46.4936 52.0567C51.2681 55.285 54.6049 59.7507 56.5038 65.454H43.401C42.0989 62.7638 40.2542 60.7461 37.8669 59.401C35.5339 58.0559 32.8211 57.3834 29.7285 57.3834C26.4189 57.3834 23.462 58.1635 20.8577 59.7238C18.3076 61.2303 16.3002 63.3825 14.8353 66.1803C13.4246 68.9781 12.7193 72.2602 12.7193 76.0265C12.7193 79.739 13.4246 83.021 14.8353 85.8726C16.3002 88.6705 18.3076 90.8495 20.8577 92.4098C23.462 93.9164 26.4189 94.6696 29.7285 94.6696C32.8211 94.6696 35.5339 93.9971 37.8669 92.652C40.2542 91.2531 42.0989 89.2085 43.401 86.5183H56.5038C54.6049 92.2753 51.2681 96.768 46.4936 99.9962C41.7733 103.171 36.2121 104.758 29.8099 104.758C24.3843 104.758 19.4741 103.547 15.0794 101.126C10.7389 98.6511 7.29369 95.2346 4.74366 90.8764C2.24789 86.5183 1 81.5683 1 76.0265Z" fill="#E87D1B"/>
<path d="M77.6293 44.5511V104.274H66.2355V44.5511H77.6293Z" fill="#E87D1B"/>
<path d="M85.9565 81.7566C85.9565 77.2371 86.8517 73.2287 88.6422 69.7314C90.4869 66.2341 92.9555 63.5439 96.0481 61.6608C99.1949 59.7776 102.694 58.8361 106.547 58.8361C109.91 58.8361 112.84 59.5086 115.336 60.8537C117.886 62.1988 119.921 63.8937 121.44 65.9382V59.5624H132.915V104.274H121.44V97.7364C119.975 99.8348 117.94 101.583 115.336 102.982C112.786 104.327 109.829 105 106.465 105C102.667 105 99.1949 104.032 96.0481 102.095C92.9555 100.158 90.4869 97.4405 88.6422 93.9433C86.8517 90.3922 85.9565 86.33 85.9565 81.7566ZM121.44 81.918C121.44 79.174 120.897 76.8335 119.812 74.8966C118.727 72.9058 117.262 71.3993 115.417 70.3771C113.573 69.301 111.592 68.7629 109.476 68.7629C107.36 68.7629 105.407 69.2741 103.617 70.2963C101.826 71.3186 100.361 72.8251 99.2221 74.8159C98.137 76.7528 97.5944 79.0664 97.5944 81.7566C97.5944 84.4468 98.137 86.8142 99.2221 88.8588C100.361 90.8495 101.826 92.3829 103.617 93.459C105.462 94.5351 107.415 95.0731 109.476 95.0731C111.592 95.0731 113.573 94.562 115.417 93.5397C117.262 92.4636 118.727 90.9571 119.812 89.0202C120.897 87.0294 121.44 84.662 121.44 81.918Z" fill="#E87D1B"/>
<path d="M161.296 105C157.607 105 154.297 104.354 151.368 103.063C148.438 101.718 146.105 99.9155 144.368 97.6557C142.687 95.396 141.764 92.8941 141.601 90.1501H153.077C153.294 91.8718 154.135 93.2976 155.599 94.4275C157.119 95.5574 158.99 96.1223 161.215 96.1223C163.385 96.1223 165.067 95.6919 166.261 94.831C167.509 93.9702 168.133 92.8672 168.133 91.5221C168.133 90.0694 167.373 88.9933 165.854 88.2938C164.389 87.5406 162.029 86.7335 158.773 85.8726C155.41 85.0656 152.643 84.2316 150.472 83.3707C148.356 82.5099 146.512 81.1917 144.938 79.4161C143.419 77.6406 142.659 75.2463 142.659 72.2333C142.659 69.7583 143.365 67.4985 144.775 65.454C146.24 63.4094 148.302 61.7953 150.961 60.6116C153.673 59.4279 156.847 58.8361 160.483 58.8361C165.854 58.8361 170.14 60.1812 173.341 62.8714C176.542 65.5078 178.306 69.0857 178.631 73.6053H167.726C167.563 71.8298 166.803 70.4309 165.447 69.4086C164.145 68.3325 162.381 67.7945 160.157 67.7945C158.095 67.7945 156.495 68.1711 155.355 68.9243C154.27 69.6776 153.728 70.7268 153.728 72.0719C153.728 73.5784 154.487 74.7352 156.006 75.5422C157.526 76.2955 159.886 77.0757 163.087 77.8827C166.342 78.6898 169.028 79.5238 171.144 80.3846C173.26 81.2455 175.077 82.5906 176.597 84.4199C178.17 86.1955 178.984 88.5628 179.038 91.5221C179.038 94.1047 178.306 96.4182 176.841 98.4628C175.43 100.507 173.368 102.121 170.656 103.305C167.997 104.435 164.877 105 161.296 105Z" fill="#E87D1B"/>
<path d="M205.644 105C201.955 105 198.645 104.354 195.715 103.063C192.786 101.718 190.453 99.9155 188.716 97.6557C187.034 95.396 186.112 92.8941 185.949 90.1501H197.424C197.641 91.8718 198.482 93.2976 199.947 94.4275C201.467 95.5574 203.338 96.1223 205.563 96.1223C207.733 96.1223 209.415 95.6919 210.609 94.831C211.856 93.9702 212.48 92.8672 212.48 91.5221C212.48 90.0694 211.721 88.9933 210.202 88.2938C208.737 87.5406 206.377 86.7335 203.121 85.8726C199.757 85.0656 196.99 84.2316 194.82 83.3707C192.704 82.5099 190.859 81.1917 189.286 79.4161C187.767 77.6406 187.007 75.2463 187.007 72.2333C187.007 69.7583 187.713 67.4985 189.123 65.454C190.588 63.4094 192.65 61.7953 195.308 60.6116C198.021 59.4279 201.195 58.8361 204.83 58.8361C210.202 58.8361 214.488 60.1812 217.689 62.8714C220.89 65.5078 222.653 69.0857 222.979 73.6053H212.074C211.911 71.8298 211.151 70.4309 209.795 69.4086C208.493 68.3325 206.729 67.7945 204.505 67.7945C202.443 67.7945 200.843 68.1711 199.703 68.9243C198.618 69.6776 198.076 70.7268 198.076 72.0719C198.076 73.5784 198.835 74.7352 200.354 75.5422C201.873 76.2955 204.234 77.0757 207.435 77.8827C210.69 78.6898 213.376 79.5238 215.492 80.3846C217.608 81.2455 219.425 82.5906 220.944 84.4199C222.518 86.1955 223.332 88.5628 223.386 91.5221C223.386 94.1047 222.653 96.4182 221.189 98.4628C219.778 100.507 217.716 102.121 215.003 103.305C212.345 104.435 209.225 105 205.644 105Z" fill="#E87D1B"/>
<path d="M238.517 54.2358C236.509 54.2358 234.828 53.6171 233.471 52.3796C232.169 51.0883 231.518 49.501 231.518 47.6179C231.518 45.7348 232.169 44.1744 233.471 42.9369C234.828 41.6456 236.509 41 238.517 41C240.524 41 242.179 41.6456 243.481 42.9369C244.838 44.1744 245.516 45.7348 245.516 47.6179C245.516 49.501 244.838 51.0883 243.481 52.3796C242.179 53.6171 240.524 54.2358 238.517 54.2358ZM244.132 59.5624V104.274H232.739V59.5624H244.132Z" fill="#E87D1B"/>
<path d="M252.46 81.918C252.46 77.2909 253.409 73.2556 255.308 69.8121C257.207 66.3148 259.838 63.6246 263.202 61.7415C266.566 59.8045 270.418 58.8361 274.759 58.8361C280.347 58.8361 284.959 60.235 288.594 63.0328C292.283 65.7768 294.752 69.6507 296 74.6545H283.711C283.06 72.7175 281.948 71.211 280.374 70.1349C278.855 69.005 276.956 68.4401 274.677 68.4401C271.422 68.4401 268.845 69.6238 266.946 71.9912C265.047 74.3048 264.098 77.6137 264.098 81.918C264.098 86.1686 265.047 89.4775 266.946 91.8449C268.845 94.1585 271.422 95.3153 274.677 95.3153C279.289 95.3153 282.3 93.2707 283.711 89.1816H296C294.752 94.024 292.283 97.871 288.594 100.723C284.905 103.574 280.293 105 274.759 105C270.418 105 266.566 104.058 263.202 102.175C259.838 100.238 257.207 97.5481 255.308 94.1047C253.409 90.6074 252.46 86.5452 252.46 81.918Z" fill="#E87D1B"/>
</svg>
