<svg width="136" height="44" viewBox="0 0 136 44" fill="none" xmlns="http://www.w3.org/2000/svg">
<rect y="12" width="136" height="24" fill="white"/>
<path d="M4.594 10.664C4.594 9.416 4.864 8.306 5.404 7.334C5.944 6.35 6.694 5.588 7.654 5.048C8.626 4.496 9.724 4.22 10.948 4.22C12.448 4.22 13.732 4.616 14.8 5.408C15.868 6.2 16.582 7.28 16.942 8.648H13.558C13.306 8.12 12.946 7.718 12.478 7.442C12.022 7.166 11.5 7.028 10.912 7.028C9.964 7.028 9.196 7.358 8.608 8.018C8.02 8.678 7.726 9.56 7.726 10.664C7.726 11.768 8.02 12.65 8.608 13.31C9.196 13.97 9.964 14.3 10.912 14.3C11.5 14.3 12.022 14.162 12.478 13.886C12.946 13.61 13.306 13.208 13.558 12.68H16.942C16.582 14.048 15.868 15.128 14.8 15.92C13.732 16.7 12.448 17.09 10.948 17.09C9.724 17.09 8.626 16.82 7.654 16.28C6.694 15.728 5.944 14.966 5.404 13.994C4.864 13.022 4.594 11.912 4.594 10.664ZM23.3989 17.144C22.4149 17.144 21.5269 16.934 20.7349 16.514C19.9549 16.094 19.3369 15.494 18.8809 14.714C18.4369 13.934 18.2149 13.022 18.2149 11.978C18.2149 10.946 18.4429 10.04 18.8989 9.26C19.3549 8.468 19.9789 7.862 20.7709 7.442C21.5629 7.022 22.4509 6.812 23.4349 6.812C24.4189 6.812 25.3069 7.022 26.0989 7.442C26.8909 7.862 27.5149 8.468 27.9709 9.26C28.4269 10.04 28.6549 10.946 28.6549 11.978C28.6549 13.01 28.4209 13.922 27.9529 14.714C27.4969 15.494 26.8669 16.094 26.0629 16.514C25.2709 16.934 24.3829 17.144 23.3989 17.144ZM23.3989 14.48C23.9869 14.48 24.4849 14.264 24.8929 13.832C25.3129 13.4 25.5229 12.782 25.5229 11.978C25.5229 11.174 25.3189 10.556 24.9109 10.124C24.5149 9.692 24.0229 9.476 23.4349 9.476C22.8349 9.476 22.3369 9.692 21.9409 10.124C21.5449 10.544 21.3469 11.162 21.3469 11.978C21.3469 12.782 21.5389 13.4 21.9229 13.832C22.3189 14.264 22.8109 14.48 23.3989 14.48ZM43.1039 6.848C44.3519 6.848 45.3419 7.226 46.0739 7.982C46.8179 8.738 47.1899 9.788 47.1899 11.132V17H44.1299V11.546C44.1299 10.898 43.9559 10.4 43.6079 10.052C43.2719 9.692 42.8039 9.512 42.2039 9.512C41.6039 9.512 41.1299 9.692 40.7819 10.052C40.4459 10.4 40.2779 10.898 40.2779 11.546V17H37.2179V11.546C37.2179 10.898 37.0439 10.4 36.6959 10.052C36.3599 9.692 35.8919 9.512 35.2919 9.512C34.6919 9.512 34.2179 9.692 33.8699 10.052C33.5339 10.4 33.3659 10.898 33.3659 11.546V17H30.2879V6.956H33.3659V8.216C33.6779 7.796 34.0859 7.466 34.5899 7.226C35.0939 6.974 35.6639 6.848 36.2999 6.848C37.0559 6.848 37.7279 7.01 38.3159 7.334C38.9159 7.658 39.3839 8.12 39.7199 8.72C40.0679 8.168 40.5419 7.718 41.1419 7.37C41.7419 7.022 42.3959 6.848 43.1039 6.848ZM62.1586 6.848C63.4066 6.848 64.3966 7.226 65.1286 7.982C65.8726 8.738 66.2446 9.788 66.2446 11.132V17H63.1846V11.546C63.1846 10.898 63.0106 10.4 62.6626 10.052C62.3266 9.692 61.8586 9.512 61.2586 9.512C60.6586 9.512 60.1846 9.692 59.8366 10.052C59.5006 10.4 59.3326 10.898 59.3326 11.546V17H56.2726V11.546C56.2726 10.898 56.0986 10.4 55.7506 10.052C55.4146 9.692 54.9466 9.512 54.3466 9.512C53.7466 9.512 53.2726 9.692 52.9246 10.052C52.5886 10.4 52.4206 10.898 52.4206 11.546V17H49.3426V6.956H52.4206V8.216C52.7326 7.796 53.1406 7.466 53.6446 7.226C54.1486 6.974 54.7186 6.848 55.3546 6.848C56.1106 6.848 56.7826 7.01 57.3706 7.334C57.9706 7.658 58.4386 8.12 58.7746 8.72C59.1226 8.168 59.5966 7.718 60.1966 7.37C60.7966 7.022 61.4506 6.848 62.1586 6.848ZM78.3153 6.956V17H75.2373V15.632C74.9253 16.076 74.4993 16.436 73.9593 16.712C73.4313 16.976 72.8433 17.108 72.1953 17.108C71.4273 17.108 70.7493 16.94 70.1613 16.604C69.5733 16.256 69.1173 15.758 68.7933 15.11C68.4693 14.462 68.3073 13.7 68.3073 12.824V6.956H71.3673V12.41C71.3673 13.082 71.5413 13.604 71.8893 13.976C72.2373 14.348 72.7053 14.534 73.2933 14.534C73.8933 14.534 74.3673 14.348 74.7153 13.976C75.0633 13.604 75.2373 13.082 75.2373 12.41V6.956H78.3153ZM86.6462 6.848C87.8222 6.848 88.7582 7.232 89.4542 8C90.1622 8.756 90.5162 9.8 90.5162 11.132V17H87.4562V11.546C87.4562 10.874 87.2822 10.352 86.9342 9.98C86.5862 9.608 86.1182 9.422 85.5302 9.422C84.9422 9.422 84.4742 9.608 84.1262 9.98C83.7782 10.352 83.6042 10.874 83.6042 11.546V17H80.5262V6.956H83.6042V8.288C83.9162 7.844 84.3362 7.496 84.8642 7.244C85.3922 6.98 85.9862 6.848 86.6462 6.848ZM94.2031 5.912C93.6631 5.912 93.2191 5.756 92.8711 5.444C92.5351 5.12 92.3671 4.724 92.3671 4.256C92.3671 3.776 92.5351 3.38 92.8711 3.068C93.2191 2.744 93.6631 2.582 94.2031 2.582C94.7311 2.582 95.1631 2.744 95.4991 3.068C95.8471 3.38 96.0211 3.776 96.0211 4.256C96.0211 4.724 95.8471 5.12 95.4991 5.444C95.1631 5.756 94.7311 5.912 94.2031 5.912ZM95.7331 6.956V17H92.6551V6.956H95.7331ZM103.562 14.39V17H101.996C100.88 17 100.01 16.73 99.3857 16.19C98.7617 15.638 98.4497 14.744 98.4497 13.508V9.512H97.2257V6.956H98.4497V4.508H101.528V6.956H103.544V9.512H101.528V13.544C101.528 13.844 101.6 14.06 101.744 14.192C101.888 14.324 102.128 14.39 102.464 14.39H103.562ZM115.536 6.956L109.236 21.77H105.924L108.228 16.658L104.142 6.956H107.58L109.902 13.238L112.206 6.956H115.536ZM8.194 26.364V39H5.116V26.364H8.194ZM16.5446 28.848C17.7206 28.848 18.6566 29.232 19.3526 30C20.0606 30.756 20.4146 31.8 20.4146 33.132V39H17.3546V33.546C17.3546 32.874 17.1806 32.352 16.8326 31.98C16.4846 31.608 16.0166 31.422 15.4286 31.422C14.8406 31.422 14.3726 31.608 14.0246 31.98C13.6766 32.352 13.5026 32.874 13.5026 33.546V39H10.4246V28.956H13.5026V30.288C13.8146 29.844 14.2346 29.496 14.7626 29.244C15.2906 28.98 15.8846 28.848 16.5446 28.848ZM28.1515 36.39V39H26.5855C25.4695 39 24.5995 38.73 23.9755 38.19C23.3515 37.638 23.0395 36.744 23.0395 35.508V31.512H21.8155V28.956H23.0395V26.508H26.1175V28.956H28.1335V31.512H26.1175V35.544C26.1175 35.844 26.1895 36.06 26.3335 36.192C26.4775 36.324 26.7175 36.39 27.0535 36.39H28.1515ZM39.334 33.816C39.334 34.104 39.316 34.404 39.28 34.716H32.314C32.362 35.34 32.56 35.82 32.908 36.156C33.268 36.48 33.706 36.642 34.222 36.642C34.99 36.642 35.524 36.318 35.824 35.67H39.1C38.932 36.33 38.626 36.924 38.182 37.452C37.75 37.98 37.204 38.394 36.544 38.694C35.884 38.994 35.146 39.144 34.33 39.144C33.346 39.144 32.47 38.934 31.702 38.514C30.934 38.094 30.334 37.494 29.902 36.714C29.47 35.934 29.254 35.022 29.254 33.978C29.254 32.934 29.464 32.022 29.884 31.242C30.316 30.462 30.916 29.862 31.684 29.442C32.452 29.022 33.334 28.812 34.33 28.812C35.302 28.812 36.166 29.016 36.922 29.424C37.678 29.832 38.266 30.414 38.686 31.17C39.118 31.926 39.334 32.808 39.334 33.816ZM36.184 33.006C36.184 32.478 36.004 32.058 35.644 31.746C35.284 31.434 34.834 31.278 34.294 31.278C33.778 31.278 33.34 31.428 32.98 31.728C32.632 32.028 32.416 32.454 32.332 33.006H36.184ZM44.7738 28.812C45.4818 28.812 46.0998 28.956 46.6278 29.244C47.1678 29.532 47.5818 29.91 47.8698 30.378V28.956H50.9478V38.982C50.9478 39.906 50.7618 40.74 50.3898 41.484C50.0298 42.24 49.4718 42.84 48.7158 43.284C47.9718 43.728 47.0418 43.95 45.9258 43.95C44.4378 43.95 43.2318 43.596 42.3078 42.888C41.3838 42.192 40.8558 41.244 40.7238 40.044H43.7658C43.8618 40.428 44.0898 40.728 44.4498 40.944C44.8098 41.172 45.2538 41.286 45.7818 41.286C46.4178 41.286 46.9218 41.1 47.2938 40.728C47.6778 40.368 47.8698 39.786 47.8698 38.982V37.56C47.5698 38.028 47.1558 38.412 46.6278 38.712C46.0998 39 45.4818 39.144 44.7738 39.144C43.9458 39.144 43.1958 38.934 42.5238 38.514C41.8518 38.082 41.3178 37.476 40.9218 36.696C40.5378 35.904 40.3458 34.992 40.3458 33.96C40.3458 32.928 40.5378 32.022 40.9218 31.242C41.3178 30.462 41.8518 29.862 42.5238 29.442C43.1958 29.022 43.9458 28.812 44.7738 28.812ZM47.8698 33.978C47.8698 33.21 47.6538 32.604 47.2218 32.16C46.8018 31.716 46.2858 31.494 45.6738 31.494C45.0618 31.494 44.5398 31.716 44.1078 32.16C43.6878 32.592 43.4778 33.192 43.4778 33.96C43.4778 34.728 43.6878 35.34 44.1078 35.796C44.5398 36.24 45.0618 36.462 45.6738 36.462C46.2858 36.462 46.8018 36.24 47.2218 35.796C47.6538 35.352 47.8698 34.746 47.8698 33.978ZM56.2526 30.63C56.6126 30.078 57.0626 29.646 57.6026 29.334C58.1426 29.01 58.7426 28.848 59.4026 28.848V32.106H58.5566C57.7886 32.106 57.2126 32.274 56.8286 32.61C56.4446 32.934 56.2526 33.51 56.2526 34.338V39H53.1746V28.956H56.2526V30.63ZM60.2618 33.96C60.2618 32.928 60.4538 32.022 60.8378 31.242C61.2338 30.462 61.7678 29.862 62.4398 29.442C63.1118 29.022 63.8618 28.812 64.6898 28.812C65.3978 28.812 66.0158 28.956 66.5438 29.244C67.0838 29.532 67.4978 29.91 67.7858 30.378V28.956H70.8638V39H67.7858V37.578C67.4858 38.046 67.0658 38.424 66.5258 38.712C65.9978 39 65.3798 39.144 64.6718 39.144C63.8558 39.144 63.1118 38.934 62.4398 38.514C61.7678 38.082 61.2338 37.476 60.8378 36.696C60.4538 35.904 60.2618 34.992 60.2618 33.96ZM67.7858 33.978C67.7858 33.21 67.5698 32.604 67.1378 32.16C66.7178 31.716 66.2018 31.494 65.5898 31.494C64.9778 31.494 64.4558 31.716 64.0238 32.16C63.6038 32.592 63.3938 33.192 63.3938 33.96C63.3938 34.728 63.6038 35.34 64.0238 35.796C64.4558 36.24 64.9778 36.462 65.5898 36.462C66.2018 36.462 66.7178 36.24 67.1378 35.796C67.5698 35.352 67.7858 34.746 67.7858 33.978ZM78.6886 36.39V39H77.1226C76.0066 39 75.1366 38.73 74.5126 38.19C73.8886 37.638 73.5766 36.744 73.5766 35.508V31.512H72.3526V28.956H73.5766V26.508H76.6546V28.956H78.6706V31.512H76.6546V35.544C76.6546 35.844 76.7266 36.06 76.8706 36.192C77.0146 36.324 77.2546 36.39 77.5906 36.39H78.6886ZM81.9511 27.912C81.4111 27.912 80.9671 27.756 80.6191 27.444C80.2831 27.12 80.1151 26.724 80.1151 26.256C80.1151 25.776 80.2831 25.38 80.6191 25.068C80.9671 24.744 81.4111 24.582 81.9511 24.582C82.4791 24.582 82.9111 24.744 83.2471 25.068C83.5951 25.38 83.7691 25.776 83.7691 26.256C83.7691 26.724 83.5951 27.12 83.2471 27.444C82.9111 27.756 82.4791 27.912 81.9511 27.912ZM83.4811 28.956V39H80.4031V28.956H83.4811ZM90.2837 39.144C89.2997 39.144 88.4117 38.934 87.6197 38.514C86.8397 38.094 86.2217 37.494 85.7657 36.714C85.3217 35.934 85.0997 35.022 85.0997 33.978C85.0997 32.946 85.3277 32.04 85.7837 31.26C86.2397 30.468 86.8637 29.862 87.6557 29.442C88.4477 29.022 89.3357 28.812 90.3197 28.812C91.3037 28.812 92.1917 29.022 92.9837 29.442C93.7757 29.862 94.3997 30.468 94.8557 31.26C95.3117 32.04 95.5397 32.946 95.5397 33.978C95.5397 35.01 95.3057 35.922 94.8377 36.714C94.3817 37.494 93.7517 38.094 92.9477 38.514C92.1557 38.934 91.2677 39.144 90.2837 39.144ZM90.2837 36.48C90.8717 36.48 91.3697 36.264 91.7777 35.832C92.1977 35.4 92.4077 34.782 92.4077 33.978C92.4077 33.174 92.2037 32.556 91.7957 32.124C91.3997 31.692 90.9077 31.476 90.3197 31.476C89.7197 31.476 89.2217 31.692 88.8257 32.124C88.4297 32.544 88.2317 33.162 88.2317 33.978C88.2317 34.782 88.4237 35.4 88.8077 35.832C89.2037 36.264 89.6957 36.48 90.2837 36.48ZM103.293 28.848C104.469 28.848 105.405 29.232 106.101 30C106.809 30.756 107.163 31.8 107.163 33.132V39H104.103V33.546C104.103 32.874 103.929 32.352 103.581 31.98C103.233 31.608 102.765 31.422 102.177 31.422C101.589 31.422 101.121 31.608 100.773 31.98C100.425 32.352 100.251 32.874 100.251 33.546V39H97.1726V28.956H100.251V30.288C100.563 29.844 100.983 29.496 101.511 29.244C102.039 28.98 102.633 28.848 103.293 28.848ZM113.388 39.144C112.512 39.144 111.732 38.994 111.048 38.694C110.364 38.394 109.824 37.986 109.428 37.47C109.032 36.942 108.81 36.354 108.762 35.706H111.804C111.84 36.054 112.002 36.336 112.29 36.552C112.578 36.768 112.932 36.876 113.352 36.876C113.736 36.876 114.03 36.804 114.234 36.66C114.45 36.504 114.558 36.306 114.558 36.066C114.558 35.778 114.408 35.568 114.108 35.436C113.808 35.292 113.322 35.136 112.65 34.968C111.93 34.8 111.33 34.626 110.85 34.446C110.37 34.254 109.956 33.96 109.608 33.564C109.26 33.156 109.086 32.61 109.086 31.926C109.086 31.35 109.242 30.828 109.554 30.36C109.878 29.88 110.346 29.502 110.958 29.226C111.582 28.95 112.32 28.812 113.172 28.812C114.432 28.812 115.422 29.124 116.142 29.748C116.874 30.372 117.294 31.2 117.402 32.232H114.558C114.51 31.884 114.354 31.608 114.09 31.404C113.838 31.2 113.502 31.098 113.082 31.098C112.722 31.098 112.446 31.17 112.254 31.314C112.062 31.446 111.966 31.632 111.966 31.872C111.966 32.16 112.116 32.376 112.416 32.52C112.728 32.664 113.208 32.808 113.856 32.952C114.6 33.144 115.206 33.336 115.674 33.528C116.142 33.708 116.55 34.008 116.898 34.428C117.258 34.836 117.444 35.388 117.456 36.084C117.456 36.672 117.288 37.2 116.952 37.668C116.628 38.124 116.154 38.484 115.53 38.748C114.918 39.012 114.204 39.144 113.388 39.144Z" fill="#1E1E1E"/>
</svg>
