<?xml version="1.0" encoding="utf-8"?>
<!-- Generator: Adobe Illustrator 16.0.0, SVG Export Plug-In . SVG Version: 6.00 Build 0)  -->
<!DOCTYPE svg PUBLIC "-//W3C//DTD SVG 1.1//EN" "http://www.w3.org/Graphics/SVG/1.1/DTD/svg11.dtd">
<svg version="1.1" id="Layer_1" xmlns="http://www.w3.org/2000/svg" xmlns:xlink="http://www.w3.org/1999/xlink" x="0px" y="0px"
	 width="318.859px" height="318.859px" viewBox="0 0 318.859 318.859" enable-background="new 0 0 318.859 318.859"
	 xml:space="preserve">
<g>
	<line fill="none" stroke="#E8EDF0" x1="159.43" y1="9.43" x2="159.43" y2="309.43"/>
	<line fill="none" stroke="#E8EDF0" x1="9.43" y1="159.43" x2="309.43" y2="159.43"/>
</g>
</svg>
