<svg width="42" height="30" viewBox="0 0 42 30" fill="none" xmlns="http://www.w3.org/2000/svg">
<path d="M38.3086 0H3.69141C1.65596 0 0 1.65596 0 3.69141V25.8398C0 27.8753 1.65596 29.5312 3.69141 29.5312H38.3086C40.344 29.5312 42 27.8753 42 25.8398V3.69141C42 1.65596 40.344 0 38.3086 0ZM39.5391 25.8398C39.5391 26.5183 38.9871 27.0703 38.3086 27.0703H3.69141C3.01293 27.0703 2.46094 26.5183 2.46094 25.8398V3.69141C2.46094 3.01293 3.01293 2.46094 3.69141 2.46094H38.3086C38.9871 2.46094 39.5391 3.01293 39.5391 3.69141V25.8398Z" fill="#E87D1B"/>
<path d="M33.3867 5.15625C32.442 5.15625 31.5794 5.51333 30.9258 6.0992C30.2722 5.51333 29.4096 5.15625 28.4648 5.15625C26.4294 5.15625 24.7734 6.81221 24.7734 8.84766C24.7734 10.8831 26.4294 12.5391 28.4648 12.5391C29.4096 12.5391 30.2722 12.182 30.9258 11.5961C31.5794 12.1819 32.442 12.5391 33.3867 12.5391C35.4222 12.5391 37.0781 10.8831 37.0781 8.84766C37.0781 6.81221 35.4222 5.15625 33.3867 5.15625ZM28.4648 10.0781C27.7864 10.0781 27.2344 9.52614 27.2344 8.84766C27.2344 8.16918 27.7864 7.61719 28.4648 7.61719C29.1433 7.61719 29.6953 8.16918 29.6953 8.84766C29.6953 9.52614 29.1433 10.0781 28.4648 10.0781ZM33.3867 10.0781C32.7082 10.0781 32.1562 9.52614 32.1562 8.84766C32.1562 8.16918 32.7082 7.61719 33.3867 7.61719C34.0652 7.61719 34.6172 8.16918 34.6172 8.84766C34.6172 9.52614 34.0652 10.0781 33.3867 10.0781Z" fill="#E87D1B"/>
<path d="M4.92188 5.15625V12.5391H13.9453V5.15625H4.92188ZM11.4844 10.0781H7.38281V7.61719H11.4844V10.0781Z" fill="#E87D1B"/>
<path d="M37.0781 17.4609H4.92188V19.9219H37.0781V17.4609Z" fill="#E87D1B"/>
<path d="M21 22.3828H4.92188V24.8438H21V22.3828Z" fill="#E87D1B"/>
</svg>
