<svg width="13" height="7" viewBox="0 0 13 7" fill="none" xmlns="http://www.w3.org/2000/svg">
<path d="M1.71094 0C1.00781 0 0.65625 0.859375 1.16406 1.36719L6.16406 6.36719C6.47656 6.67969 6.98438 6.67969 7.29688 6.36719L12.2969 1.36719C12.8047 0.859375 12.4531 0 11.75 0H1.71094Z" fill="#EFA460"/>
</svg>
