<svg width="26" height="22" viewBox="0 0 26 22" fill="none" xmlns="http://www.w3.org/2000/svg">
<path d="M3.4 1.3999H22.6C23.92 1.3999 25 2.4799 25 3.7999V18.1999C25 19.5199 23.92 20.5999 22.6 20.5999H3.4C2.08 20.5999 1 19.5199 1 18.1999V3.7999C1 2.4799 2.08 1.3999 3.4 1.3999Z" stroke="#E87D1B" stroke-width="2" stroke-linecap="round" stroke-linejoin="round"/>
<path d="M25 3.80005L13 12.2L1 3.80005" stroke="#6C21E3" stroke-width="2" stroke-linecap="round" stroke-linejoin="round"/>
</svg>
