<svg width="42" height="41" viewBox="0 0 42 41" fill="none" xmlns="http://www.w3.org/2000/svg">
<path fill-rule="evenodd" clip-rule="evenodd" d="M24.75 4.5H28.125C29.9531 4.5 31.5 6.04688 31.5 7.875V17.5102C31.3342 17.5034 31.1675 17.5 31 17.5C30.4056 17.5 29.8213 17.5432 29.25 17.6267V13.5H2.25V32.625C2.25 33.2578 2.74219 33.75 3.375 33.75H19.7743C20.075 34.5436 20.4573 35.297 20.9112 36H3.375C1.47656 36 0 34.5234 0 32.625V7.875C0 6.04688 1.47656 4.5 3.375 4.5H6.75V0.5625C6.75 0.28125 6.96094 0 7.3125 0H8.4375C8.71875 0 9 0.28125 9 0.5625V4.5H22.5V0.5625C22.5 0.28125 22.7109 0 23.0625 0H24.1875C24.4688 0 24.75 0.28125 24.75 0.5625V4.5ZM2.25 11.25H29.25V7.875C29.25 7.3125 28.6875 6.75 28.125 6.75H3.375C2.74219 6.75 2.25 7.3125 2.25 7.875V11.25ZM14.625 27H7.875C7.24219 27 6.75 26.5078 6.75 25.875V19.125C6.75 18.5625 7.24219 18 7.875 18H14.625C15.1875 18 15.75 18.5625 15.75 19.125V25.875C15.75 26.5078 15.1875 27 14.625 27ZM13.5 20.25H9V24.75H13.5V20.25Z" fill="#E87D1B"/>
<path d="M31.6406 28.4375L28.2656 27.4531C27.8438 27.3125 27.5156 26.8438 27.5156 26.375C27.5156 25.7656 27.9844 25.25 28.5 25.25H30.6094C30.9375 25.25 31.2656 25.3438 31.5469 25.5312C31.8281 25.7188 32.2031 25.6719 32.4375 25.4375L33 24.9219C33.375 24.5938 33.3281 24.0312 32.9062 23.75C32.25 23.2812 31.5 23.0469 30.75 23.0469V22.25C30.75 21.875 30.4219 21.5 30 21.5H29.25C28.8281 21.5 28.5 21.875 28.5 22.25V23C26.7188 23.0469 25.3125 24.5469 25.3125 26.375C25.3125 27.8281 26.25 29.1875 27.6094 29.5625L30.9844 30.5938C31.4062 30.7344 31.6875 31.1562 31.6875 31.6719C31.6875 32.2812 31.2656 32.75 30.7031 32.75H28.5938C28.2656 32.75 27.9844 32.7031 27.7031 32.5156C27.375 32.3281 27 32.375 26.7656 32.6094L26.2031 33.125C25.8281 33.4531 25.9219 34.0156 26.2969 34.2969C26.9531 34.7188 27.7031 35 28.5 35V35.75C28.5 36.1719 28.8281 36.5 29.25 36.5H30C30.375 36.5 30.75 36.1719 30.75 35.75V35C32.4844 35 33.9375 33.5 33.9375 31.6719C33.9375 30.2188 33 28.8594 31.6406 28.4375ZM29.625 17.375C23.2031 17.375 18 22.5781 18 29C18 35.4219 23.2031 40.625 29.625 40.625C36.0469 40.625 41.25 35.4219 41.25 29C41.25 22.5781 36.0469 17.375 29.625 17.375ZM29.625 38.375C24.4219 38.375 20.25 34.2031 20.25 29C20.25 23.8438 24.4219 19.625 29.625 19.625C34.7812 19.625 39 23.8438 39 29C39 34.2031 34.7812 38.375 29.625 38.375Z" fill="#E87D1B"/>
</svg>
