<svg width="494" height="620" viewBox="0 0 494 620" fill="none" xmlns="http://www.w3.org/2000/svg">
<path opacity="0.5" d="M176.301 294.793L211.576 314.396C213.68 315.561 213.422 317.586 211.001 318.943L176.897 337.896C175.651 338.561 174.261 338.936 172.838 338.993C171.414 339.049 169.997 338.785 168.699 338.221L133.424 318.618C131.32 317.453 131.578 315.408 133.999 314.052L168.103 295.118C169.346 294.444 170.737 294.064 172.162 294.007C173.587 293.951 175.005 294.22 176.301 294.793Z" fill="#FAE5D1"/>
<g opacity="0.5" filter="url(#filter0_d)">
<path d="M421.79 313.342L364.318 346.877C360.885 348.889 361.314 352.374 365.279 354.68L420.829 387.089C424.794 389.395 430.783 389.655 434.198 387.644L491.688 354.125C495.12 352.114 494.674 348.629 490.727 346.322L435.159 313.914C431.212 311.608 425.223 311.347 421.79 313.342Z" fill="#FAE5D1"/>
</g>
<path opacity="0.5" d="M400.39 235.993L357.721 260.818C355.172 262.307 355.491 264.887 358.434 266.595L399.676 290.585C402.62 292.293 407.066 292.485 409.602 290.996L452.284 266.184C454.832 264.695 454.501 262.115 451.57 260.408L410.315 236.417C407.385 234.71 402.938 234.517 400.39 235.993Z" fill="#CDD9E3"/>
<path d="M361.19 84.0311L218.959 1.78499C217.686 0.854979 216.194 0.273332 214.631 0.0969766C213.067 -0.0793792 211.484 0.155593 210.038 0.778914L209.121 1.44962L191.697 13.0194L206.12 40.9378V318.361C206.378 322.85 207.681 327.215 209.926 331.103C212.171 334.992 215.294 338.295 219.042 340.746L348.601 416.201L352.686 436.239L370.027 424.501C371.458 423.668 372.61 422.427 373.337 420.934C374.065 419.441 374.334 417.765 374.112 416.117V106.416C373.835 101.932 372.523 97.5743 370.28 93.6888C368.037 89.8033 364.924 86.4967 361.19 84.0311Z" fill="url(#paint0_linear)"/>
<path d="M358.354 429.127C358.354 437.593 352.483 440.81 345.25 436.661L200.093 353.273C196.326 350.765 193.202 347.415 190.97 343.489C188.739 339.564 187.463 335.173 187.245 330.669V18.2792C187.245 9.81334 193.116 6.5963 200.348 10.7446L345.506 94.1332C349.32 96.6126 352.494 99.9509 354.771 103.878C357.047 107.805 358.362 112.21 358.609 116.737L358.354 429.127Z" fill="#D6E5FF"/>
<path d="M274.04 382.69C274.04 384.821 272.489 385.674 270.68 384.566L250.78 373.225C249.789 372.591 248.962 371.736 248.364 370.73C247.765 369.723 247.413 368.592 247.334 367.427V356.257C247.334 354.126 248.885 353.273 250.78 354.382L270.68 365.722C271.655 366.366 272.465 367.224 273.048 368.23C273.631 369.236 273.971 370.362 274.04 371.52V382.69Z" fill="#B8C7EB"/>
<path d="M358.609 411.758L187.245 313.441V28.9717L358.609 127.289V411.758Z" fill="#064372"/>
<path d="M291.844 79.0922C291.844 80.0254 291.091 80.4496 290.255 79.9406L259.968 62.2094C259.516 61.917 259.143 61.5164 258.88 61.043C258.618 60.5695 258.474 60.0377 258.462 59.4946V58.9856C258.462 57.9675 259.131 57.6282 259.968 58.1372L290.255 75.7835C290.703 76.0864 291.079 76.4876 291.354 76.9575C291.629 77.4274 291.797 77.954 291.844 78.4984V79.0922Z" fill="#B8C7EB"/>
<path d="M187.245 304.934L358.609 403.456V411.758L187.245 313.236V304.934Z" fill="#064372"/>
<path d="M187.245 28.9717L358.609 127.494V135.796L187.245 37.2736V28.9717Z" fill="#064372"/>
<path d="M362.08 82.3833L345.256 94.8027C348.781 97.3463 351.713 100.771 353.817 104.8C355.92 108.828 357.135 113.347 357.363 117.991L374.188 105.572C373.935 100.934 372.71 96.4254 370.609 92.401C368.507 88.3765 365.588 84.947 362.08 82.3833Z" fill="#D6E5FF"/>
<path d="M358.609 135.883L187.245 304.934V37.8735L358.609 135.883Z" fill="#064372"/>
<path opacity="0.3" d="M318.968 277.17C316.507 275.463 313.658 274.359 310.663 273.953C307.668 273.546 304.616 273.848 301.767 274.833L294.887 278.171C292.31 279.974 290.27 282.405 288.972 285.218C287.673 288.031 287.162 291.126 287.49 294.191C288.002 302.83 290.605 311.23 295.088 318.71C299.57 326.191 305.807 332.541 313.291 337.247C315.676 338.835 318.397 339.884 321.255 340.317C324.112 340.75 327.034 340.556 329.804 339.75L330.664 339.333H331.524L336.512 336.913C339.496 335.279 341.908 332.817 343.441 329.844C344.973 326.871 345.555 323.521 345.112 320.225C344.604 311.547 341.966 303.112 337.418 295.623C332.871 288.134 326.545 281.807 318.968 277.17Z" fill="#291952"/>
<path opacity="0.3" d="M313.099 217.014C315.479 218.64 318.218 219.713 321.1 220.147C323.983 220.581 326.93 220.365 329.711 219.515H330.576L331.442 219.098L336.46 216.68C339.461 215.047 341.888 212.587 343.43 209.616C344.971 206.644 345.557 203.297 345.112 200.003C344.617 191.365 342.007 182.963 337.496 175.484C332.985 168.006 326.7 161.663 319.156 156.975C316.686 155.257 313.815 154.153 310.797 153.76C307.778 153.368 304.706 153.699 301.852 154.724L294.93 158.059C292.338 159.881 290.287 162.325 288.982 165.149C287.676 167.973 287.162 171.078 287.49 174.153C287.993 182.728 290.571 191.07 295.018 198.512C299.465 205.955 305.657 212.291 313.099 217.014Z" fill="#291952"/>
<path opacity="0.3" d="M274.219 269.463V248.435C274.029 245.157 273.08 241.968 271.447 239.122C269.814 236.276 267.542 233.852 264.812 232.042L187.245 186.982V277.703L258.996 319.243C259.945 319.95 261.07 320.381 262.247 320.487C263.424 320.593 264.608 320.37 265.667 319.844L269.943 317.441C272.594 317.441 274.39 314.694 274.39 310.832V289.718L282.942 284.655L274.219 269.463Z" fill="#291952"/>
<path opacity="0.3" d="M274.219 150.137V129.459C274.029 126.236 273.08 123.1 271.447 120.301C269.814 117.503 267.542 115.119 264.812 113.339L187.245 69.0308V158.239L258.996 199.087C259.945 199.783 261.07 200.206 262.247 200.31C263.424 200.414 264.608 200.196 265.667 199.678L269.943 197.315C272.594 197.315 274.39 194.53 274.39 190.732V170.055L282.942 165.159L274.219 150.137Z" fill="#291952"/>
<path d="M267.729 257.704V237.028C267.542 233.804 266.603 230.668 264.989 227.87C263.375 225.072 261.13 222.688 258.431 220.908L112.454 137.02C111.518 136.359 110.428 135.95 109.288 135.832C108.149 135.713 106.997 135.89 105.946 136.345L100.451 139.045L103.156 142.59V203.607C103.324 206.836 104.254 209.979 105.869 212.78C107.485 215.581 109.742 217.962 112.454 219.727L244.738 295.682L250.739 303.109L259.192 307.16L263.418 304.797C266.038 304.375 267.814 302.096 267.814 298.298V277.621L276.266 272.642L267.729 257.704Z" fill="#FAE5D1"/>
<path d="M261.113 260.065V239.372C260.925 236.17 259.984 233.056 258.365 230.281C256.746 227.505 254.494 225.145 251.79 223.389L105.408 139.271C100.238 136.327 96 138.767 96 144.655V205.724C96.1843 208.948 97.1323 212.083 98.7671 214.875C100.402 217.667 102.677 220.036 105.408 221.791L251.79 305.909C256.875 308.853 261.113 306.414 261.113 300.525V279.748L269.589 274.869L261.113 260.065Z" fill="#E87D1B"/>
<path d="M245.109 245.154C245.109 247.055 243.494 247.633 241.37 246.476L108.641 172.102C107.62 171.523 106.751 170.722 106.102 169.761C105.454 168.8 105.043 167.706 104.902 166.565C104.902 164.747 106.601 164.169 108.641 165.326L241.37 239.7C242.393 240.256 243.265 241.04 243.915 241.989C244.566 242.937 244.975 244.022 245.109 245.154Z" fill="white"/>
<path d="M245.109 258.507C245.109 260.408 243.494 260.986 241.37 259.829L108.641 185.452C107.631 184.881 106.768 184.092 106.12 183.147C105.472 182.201 105.055 181.124 104.902 179.997C104.902 178.097 106.601 177.518 108.641 178.675L241.37 253.053C242.393 253.608 243.265 254.393 243.915 255.341C244.566 256.29 244.975 257.375 245.109 258.507Z" fill="white"/>
<path d="M202.824 249.541C202.824 251.505 201.106 252.103 199.045 250.907L108.681 199.057C107.65 198.458 106.771 197.63 106.115 196.637C105.46 195.643 105.044 194.513 104.902 193.333C104.902 191.454 106.62 190.856 108.681 192.052L199.045 243.903C200.066 244.493 200.937 245.308 201.592 246.285C202.248 247.263 202.669 248.376 202.824 249.541Z" fill="white"/>
<path d="M267.729 136.384V115.986C267.542 112.805 266.603 109.712 264.989 106.951C263.375 104.191 261.13 101.839 258.431 100.083L112.454 16.8255C111.518 16.1737 110.428 15.77 109.288 15.6534C108.149 15.5367 106.997 15.711 105.946 16.1594L100.451 18.9069L103.156 22.4038V82.5991C103.324 85.784 104.254 88.8847 105.869 91.6483C107.485 94.4119 109.742 96.7601 112.454 98.5014L244.738 173.433L250.739 180.76L259.192 184.756L263.418 182.425C266.038 182.425 267.814 179.678 267.814 175.931V156.032L276.266 151.204L267.729 136.384Z" fill="#F6CBA4"/>
<path d="M261.113 139.904V119.225C260.925 116.014 259.985 112.891 258.366 110.104C256.747 107.317 254.496 104.943 251.79 103.17L105.408 19.1108C100.238 16.1688 96 18.5224 96 24.4066V85.6015C96.1843 88.823 97.1323 91.9559 98.7671 94.7456C100.402 97.5354 102.677 99.9032 105.408 101.657L251.79 185.716C256.875 188.658 261.113 186.304 261.113 180.42V159.742L269.589 154.782L261.113 139.904Z" fill="#E87D1B"/>
<path d="M245.109 127.178C245.109 129.098 243.494 129.709 241.37 128.487L108.641 50.1098C107.631 49.5068 106.768 48.6741 106.12 47.6755C105.472 46.6769 105.055 45.5391 104.902 44.3494C104.902 42.3419 106.601 41.731 108.641 42.9529L241.37 121.505C242.382 122.084 243.248 122.898 243.897 123.884C244.547 124.869 244.962 125.998 245.109 127.178Z" fill="white"/>
<path d="M245.109 140.557C245.109 142.456 243.494 143.034 241.37 141.878L108.641 67.5755C107.62 66.9968 106.751 66.1962 106.102 65.2365C105.454 64.2768 105.043 63.184 104.902 62.044C104.902 60.1452 106.601 59.5673 108.641 60.7231L241.37 135.026C242.404 135.589 243.283 136.386 243.934 137.348C244.585 138.311 244.987 139.412 245.109 140.557Z" fill="white"/>
<path d="M202.824 131.611C202.824 133.488 201.106 134.171 199.045 132.976L108.681 81.0932C107.66 80.5036 106.788 79.6895 106.133 78.7132C105.478 77.7369 105.057 76.6244 104.902 75.4612C104.902 73.4985 106.62 72.9012 108.681 74.0958L199.045 125.893C200.076 126.491 200.955 127.319 201.61 128.311C202.266 129.303 202.682 130.432 202.824 131.611Z" fill="white"/>
<path d="M334.046 305.204C333.581 296.457 331.124 287.949 326.878 280.375C322.632 272.802 316.716 266.379 309.615 261.632C307.285 259.905 304.588 258.788 301.751 258.376C298.915 257.965 296.025 258.27 293.328 259.268L286.406 262.899H288.767C286.262 266.724 285.006 271.282 285.184 275.903C285.668 284.634 288.133 293.123 292.379 300.679C296.624 308.236 302.53 314.647 309.615 319.39C312.574 321.291 315.921 322.448 319.388 322.768V324.964L325.74 321.67C328.525 320.069 330.797 317.655 332.273 314.728C333.75 311.802 334.366 308.49 334.046 305.204Z" fill="#FAE5D1"/>
<path d="M329.678 308.732C329.678 325.22 318.332 331.901 304.085 323.658C296.66 318.764 290.474 312.16 286.028 304.38C281.581 296.601 278.999 287.865 278.491 278.881C278.491 262.393 289.923 255.711 304.085 263.955C311.523 268.833 317.72 275.434 322.169 283.217C326.617 290.999 329.191 299.743 329.678 308.732Z" fill="white"/>
<path d="M311.874 288.877C311.874 293.308 308.345 295.065 304.042 292.85C301.79 291.539 299.917 289.778 298.572 287.708C297.226 285.639 296.447 283.318 296.295 280.932C296.295 276.501 299.738 274.744 304.042 276.959C306.309 278.261 308.199 280.018 309.56 282.089C310.92 284.159 311.713 286.484 311.874 288.877Z" fill="#064372"/>
<path d="M314.893 303.583C314.758 302.599 314.418 301.656 313.895 300.815C313.372 299.974 312.678 299.254 311.86 298.703L309.728 297.463C308.91 298.074 307.918 298.403 306.9 298.403C305.881 298.403 304.89 298.074 304.071 297.463C301.621 295.857 299.662 293.594 298.414 290.929L296.364 289.688C294.888 288.861 293.495 289.688 293.249 290.929L291.855 299.696C291.797 300.56 291.973 301.424 292.362 302.195C292.752 302.967 293.342 303.618 294.069 304.079L314.073 315.74C315.549 316.567 316.533 315.74 316.287 313.921L314.893 303.583Z" fill="#064372"/>
<path d="M334.038 187.248C333.573 178.499 331.117 169.988 326.871 162.413C322.625 154.838 316.711 148.414 309.611 143.666C307.287 141.925 304.585 140.807 301.744 140.409C298.904 140.011 296.012 140.347 293.326 141.385L286.405 145.017H288.767C286.263 148.812 285.007 153.344 285.184 157.94C285.669 166.684 288.133 175.187 292.377 182.759C296.621 190.331 302.525 196.759 309.611 201.522C312.586 203.385 315.924 204.539 319.382 204.9V207.012L325.733 203.802C328.532 202.194 330.812 199.767 332.289 196.823C333.767 193.878 334.375 190.548 334.038 187.248Z" fill="#FAE5D1"/>
<path d="M329.678 189.17C329.678 205.108 318.332 211.567 304.085 203.598C296.66 198.868 290.474 192.484 286.028 184.964C281.581 177.443 278.999 168.999 278.491 160.314C278.491 144.376 289.923 137.917 304.085 145.886C311.523 150.601 317.72 156.982 322.169 164.505C326.617 172.029 329.191 180.481 329.678 189.17Z" fill="white"/>
<path d="M311.874 170.34C311.874 175.225 308.345 177.282 304.042 174.797C301.779 173.318 299.899 171.329 298.553 168.991C297.207 166.653 296.433 164.032 296.295 161.34C296.295 156.455 299.738 154.398 304.042 156.883C306.32 158.353 308.217 160.337 309.579 162.676C310.94 165.015 311.726 167.641 311.874 170.34Z" fill="#064372"/>
<path d="M314.893 184.567C314.757 183.519 314.415 182.515 313.892 181.623C313.369 180.731 312.675 179.972 311.859 179.396L309.727 178.058C308.913 178.731 307.92 179.095 306.898 179.095C305.876 179.095 304.882 178.731 304.068 178.058C301.618 176.327 299.658 173.888 298.41 171.015L296.36 169.678C296.094 169.428 295.769 169.263 295.422 169.204C295.074 169.144 294.719 169.191 294.395 169.339C294.07 169.487 293.791 169.731 293.588 170.043C293.384 170.355 293.265 170.722 293.244 171.104L291.85 180.555C291.809 181.484 291.992 182.408 292.38 183.237C292.769 184.065 293.349 184.769 294.064 185.28L314.073 197.762C315.549 198.653 316.533 197.762 316.287 195.889L314.893 184.567Z" fill="#064372"/>
<g opacity="0.5" filter="url(#filter1_d)">
<path d="M70.1605 422.208L122.876 452.222C126.022 454.01 125.628 457.152 121.995 459.22L71.0729 488.286C67.439 490.354 61.9489 490.588 58.8184 488.784L6.11919 458.723C2.97298 456.919 3.38198 453.793 7.00014 451.724L57.9375 422.674C61.5556 420.652 67.0143 420.419 70.1605 422.208Z" fill="#F5E6E6"/>
</g>
<path opacity="0.5" d="M221.983 426.505L156.634 463.914C152.733 466.144 153.221 470.059 157.726 472.637L220.852 508.864C225.357 511.442 232.163 511.733 236.043 509.484L301.373 472.017C305.273 469.768 304.766 465.872 300.281 463.294L237.135 427.087C232.65 424.567 225.883 424.276 221.983 426.505Z" fill="#E7EDF1"/>
<path opacity="0.5" d="M88.3014 522.793L123.576 542.396C125.68 543.561 125.422 545.586 123.001 546.943L88.8969 565.896C87.651 566.561 86.261 566.936 84.8377 566.993C83.4144 567.049 81.9971 566.785 80.6986 566.221L45.4238 546.618C43.3196 545.453 43.5776 543.408 45.9994 542.052L80.103 523.118C81.3459 522.444 82.7367 522.064 84.1617 522.007C85.5867 521.951 87.0053 522.22 88.3014 522.793Z" fill="#FAE5D1"/>
<path opacity="0.5" d="M198.301 367.793L233.576 387.396C235.68 388.561 235.422 390.586 233.001 391.943L198.897 410.896C197.651 411.561 196.261 411.936 194.838 411.993C193.414 412.049 191.997 411.785 190.699 411.221L155.424 391.618C153.32 390.453 153.578 388.408 155.999 387.052L190.103 368.118C191.346 367.444 192.737 367.064 194.162 367.007C195.587 366.951 197.005 367.22 198.301 367.793Z" fill="#FAE5D1"/>
<path opacity="0.5" d="M77.9733 328.409L17.4344 363.233C13.8202 365.323 14.29 368.944 18.4464 371.34L76.9612 405.012C81.1176 407.408 87.4245 407.678 91.0388 405.606L151.559 370.764C155.174 368.692 154.722 365.053 150.547 362.657L92.0507 328.985C87.8763 326.589 81.5694 326.319 77.9733 328.409Z" fill="#CDD9E3"/>
<g opacity="0.5" filter="url(#filter2_d)">
<path d="M216.05 509.55L281.366 547.858C285.267 550.157 284.779 554.14 280.274 556.776L217.142 593.816C212.637 596.452 205.85 596.749 201.95 594.45L136.634 556.142C132.733 553.843 133.221 549.86 137.726 547.224L200.857 510.184C205.363 507.548 212.15 507.251 216.05 509.55Z" fill="#FAE5D1"/>
</g>
<path opacity="0.5" d="M314.301 492.793L349.576 512.396C351.68 513.561 351.422 515.586 349.001 516.943L314.897 535.896C313.651 536.561 312.261 536.936 310.838 536.993C309.414 537.049 307.997 536.785 306.699 536.221L271.424 516.618C269.32 515.453 269.578 513.408 271.999 512.052L306.103 493.118C307.346 492.444 308.737 492.064 310.162 492.007C311.587 491.951 313.005 492.22 314.301 492.793Z" fill="#FAE5D1"/>
<path opacity="0.5" d="M429.301 426.793L464.576 446.396C466.68 447.561 466.422 449.586 464.001 450.943L429.897 469.896C428.651 470.561 427.261 470.936 425.838 470.993C424.414 471.049 422.997 470.785 421.699 470.221L386.424 450.618C384.32 449.453 384.578 447.408 386.999 446.052L421.103 427.118C422.346 426.444 423.737 426.064 425.162 426.007C426.587 425.951 428.005 426.22 429.301 426.793Z" fill="#CDD9E3"/>
<path opacity="0.5" d="M457.301 200.793L492.576 220.396C494.68 221.561 494.422 223.586 492.001 224.943L457.897 243.896C456.651 244.561 455.261 244.936 453.838 244.993C452.414 245.049 450.997 244.785 449.699 244.221L414.424 224.618C412.32 223.453 412.578 221.408 414.999 220.052L449.103 201.118C450.346 200.444 451.737 200.064 453.162 200.007C454.587 199.951 456.005 200.22 457.301 200.793Z" fill="#FAE5D1"/>
<defs>
<filter id="filter0_d" x="362" y="312" width="132" height="101" filterUnits="userSpaceOnUse" color-interpolation-filters="sRGB">
<feFlood flood-opacity="0" result="BackgroundImageFix"/>
<feColorMatrix in="SourceAlpha" type="matrix" values="0 0 0 0 0 0 0 0 0 0 0 0 0 0 0 0 0 0 127 0"/>
<feOffset dy="24"/>
<feColorMatrix type="matrix" values="0 0 0 0 0.85098 0 0 0 0 0.866667 0 0 0 0 0.921569 0 0 0 0.4 0"/>
<feBlend mode="normal" in2="BackgroundImageFix" result="effect1_dropShadow"/>
<feBlend mode="normal" in="SourceGraphic" in2="effect1_dropShadow" result="shape"/>
</filter>
<filter id="filter1_d" x="0" y="421" width="129" height="97" filterUnits="userSpaceOnUse" color-interpolation-filters="sRGB">
<feFlood flood-opacity="0" result="BackgroundImageFix"/>
<feColorMatrix in="SourceAlpha" type="matrix" values="0 0 0 0 0 0 0 0 0 0 0 0 0 0 0 0 0 0 127 0"/>
<feOffset dy="24"/>
<feGaussianBlur stdDeviation="2"/>
<feColorMatrix type="matrix" values="0 0 0 0 0.85098 0 0 0 0 0.866667 0 0 0 0 0.921569 0 0 0 0.25 0"/>
<feBlend mode="normal" in2="BackgroundImageFix" result="effect1_dropShadow"/>
<feBlend mode="normal" in="SourceGraphic" in2="effect1_dropShadow" result="shape"/>
</filter>
<filter id="filter2_d" x="134" y="508" width="150" height="112" filterUnits="userSpaceOnUse" color-interpolation-filters="sRGB">
<feFlood flood-opacity="0" result="BackgroundImageFix"/>
<feColorMatrix in="SourceAlpha" type="matrix" values="0 0 0 0 0 0 0 0 0 0 0 0 0 0 0 0 0 0 127 0"/>
<feOffset dy="24"/>
<feColorMatrix type="matrix" values="0 0 0 0 0.85098 0 0 0 0 0.866667 0 0 0 0 0.921569 0 0 0 0.4 0"/>
<feBlend mode="normal" in2="BackgroundImageFix" result="effect1_dropShadow"/>
<feBlend mode="normal" in="SourceGraphic" in2="effect1_dropShadow" result="shape"/>
</filter>
<linearGradient id="paint0_linear" x1="282.821" y1="436.071" x2="282.821" y2="-0.22714" gradientUnits="userSpaceOnUse">
<stop stop-color="#96ABD9"/>
<stop offset="0.36" stop-color="#9EB5E2"/>
<stop offset="0.99" stop-color="#B4D2F9"/>
<stop offset="1" stop-color="#B4D2F9"/>
</linearGradient>
</defs>
</svg>
