<svg width="320" height="67" viewBox="0 0 320 67" fill="none" xmlns="http://www.w3.org/2000/svg">
<path d="M-24.0012 0L326 0L326 32.0177C275.929 43.7706 267.652 27.5173 218.5 24.3968C149.673 20.0272 108.538 67.0001 45.9193 67.0001C-16.6999 67.0001 -28.9959 8.5719 -24.0012 0Z" fill="#F9D8BB"/>
<path d="M-23.8741 7.28275L337 7.28274C337 7.28274 380.5 7.14758 337 25.9679C293.5 44.7882 257.51 16.7135 213.5 20.7556C102.275 30.971 117.517 58.6193 49.5145 61.5382C-18.4878 64.4571 -29.024 17.1005 -23.8741 7.28275Z" fill="url(#paint0_linear)" fill-opacity="0.5"/>
<path d="M-24.0039 1.45608L337 1.45608L337 20.4749C277.798 33.0535 261.729 13.9572 213.928 17.7561C148.186 22.9809 120.2 51.3155 52.1728 54.2551C-15.854 57.1946 -29.1557 11.3434 -24.0039 1.45608Z" fill="url(#paint1_linear)"/>
<defs>
<linearGradient id="paint0_linear" x1="392.478" y1="92.0405" x2="171.751" y2="292.516" gradientUnits="userSpaceOnUse">
<stop stop-color="#FFBF61"/>
<stop offset="0.758361" stop-color="#FE8618"/>
<stop offset="1" stop-color="#FF396D"/>
</linearGradient>
<linearGradient id="paint1_linear" x1="392.499" y1="86.8144" x2="170.355" y2="287.229" gradientUnits="userSpaceOnUse">
<stop stop-color="#FFBF61"/>
<stop offset="0.758361" stop-color="#FE8618"/>
<stop offset="1" stop-color="#FF396D"/>
</linearGradient>
</defs>
</svg>
