<svg width="160" height="32" viewBox="0 0 160 32" fill="none" xmlns="http://www.w3.org/2000/svg">
<path fill-rule="evenodd" clip-rule="evenodd" d="M7.94276 6.49861C14.8959 -0.289115 23.3108 -2.04766 26.698 2.59496C30.0498 7.2372 27.0903 16.5919 20.1376 23.3797C13.1841 30.2019 4.76921 31.9609 1.38198 27.3186C-1.96983 22.6407 0.989664 13.3213 7.94276 6.49861Z" fill="#E7792B"/>
<path fill-rule="evenodd" clip-rule="evenodd" d="M12.7444 2.90664C12.0036 3.47784 11.2269 4.12078 10.4857 4.87094C4.45054 10.9077 1.94455 19.1591 4.90936 23.3025C7.97973 27.4463 15.3914 25.946 21.5325 19.8375C24.8502 16.5873 27.0738 12.7652 27.9914 9.26468C28.2738 6.65706 27.8859 4.37109 26.756 2.62085C24.109 -1.0586 18.4267 -0.772807 12.7444 2.90664Z" fill="#9A2C31"/>
<path fill-rule="evenodd" clip-rule="evenodd" d="M21.5782 2.2211C22.4003 3.04086 21.8999 4.82399 20.5068 6.21476C19.1129 7.57011 17.2907 8.06951 16.5048 7.28479C15.6468 6.46427 16.1472 4.68152 17.5411 3.25494C18.9701 1.86417 20.7927 1.43638 21.5782 2.2211ZM16.6476 26.6486C13.396 29.109 10.0013 30.3215 6.7146 29.7867C8.10775 29.8579 9.2154 28.3247 10.1444 26.2917C11.0734 24.1882 11.6097 22.2264 12.0738 20.4078C12.717 17.5196 12.7529 15.4512 12.4315 14.9876C11.8593 14.2745 10.6089 14.4524 9.1799 15.2725C8.46501 15.6652 7.57186 15.4154 8.64402 14.0958C9.75128 12.7767 14.075 9.60275 15.6468 9.10335C17.3621 8.60433 19.3274 9.28163 18.6487 11.1718C18.1838 12.5268 12.1811 28.2889 16.6476 26.6486Z" fill="#FFFFFE"/>
<path fill-rule="evenodd" clip-rule="evenodd" d="M28.0798 30.8874L32.1556 15.1067H37.4315L33.3554 30.8874H28.0798ZM50.1998 20.1943C50.2579 19.431 50.0917 18.8574 49.6986 18.4707C49.3047 18.0868 48.6904 17.8935 47.8514 17.8935C46.5115 17.8935 45.3705 18.328 44.4219 19.1934C43.477 20.0593 42.7985 21.2897 42.3853 22.8895C41.9873 24.4306 42.0389 25.614 42.5363 26.4392C43.033 27.2681 43.9407 27.6809 45.2627 27.6809C46.2307 27.6809 47.0632 27.4437 47.7645 26.9686C48.4612 26.4975 48.9985 25.8001 49.3757 24.88H54.8372C54.1067 26.9465 52.8659 28.4736 51.1181 29.4592C49.3681 30.442 47.0048 30.9348 44.0329 30.9348C41.1646 30.9348 39.1095 30.2482 37.8611 28.8711C36.6168 27.4948 36.3136 25.5702 36.9511 23.1013C37.6493 20.3985 39.0131 18.3135 41.0451 16.8488C43.0767 15.3844 45.6278 14.6504 48.6888 14.6504C51.3462 14.6504 53.2586 15.1143 54.4254 16.0452C55.5889 16.9766 55.9956 18.361 55.6401 20.1943H50.1998ZM54.7343 30.8874L58.8101 15.1067H64.086L60.0099 30.8874H54.7343ZM76.8547 20.1943C76.9124 19.431 76.7462 18.8574 76.3531 18.4707C75.9592 18.0868 75.3452 17.8935 74.5055 17.8935C73.166 17.8935 72.0254 18.328 71.0767 19.1934C70.1315 20.0593 69.453 21.2897 69.0398 22.8895C68.6418 24.4306 68.6934 25.614 69.1908 26.4392C69.6875 27.2681 70.5952 27.6809 71.9168 27.6809C72.8848 27.6809 73.7177 27.4437 74.419 26.9686C75.1157 26.4975 75.6534 25.8001 76.0301 24.88H81.4913C80.7612 26.9465 79.5204 28.4736 77.7726 29.4592C76.0222 30.442 73.6589 30.9348 70.6874 30.9348C67.8191 30.9348 65.764 30.2482 64.5159 28.8711C63.2713 27.4948 62.9681 25.5702 63.606 23.1013C64.3038 20.3985 65.6676 18.3135 67.6996 16.8488C69.7316 15.3844 72.2819 14.6504 75.3433 14.6504C78.0007 14.6504 79.9131 15.1143 81.0799 16.0452C82.2434 16.9766 82.6501 18.361 82.2946 20.1943H76.8547ZM81.3888 30.8874L85.4646 15.1067H90.7401L86.6644 30.8874H81.3888ZM102.024 18.3059L101.174 21.6004H103.895C104.56 21.6004 105.088 21.4613 105.488 21.1876C105.887 20.9138 106.158 20.501 106.3 19.9531C106.439 19.4125 106.382 19.0001 106.121 18.7223C105.861 18.445 105.403 18.3059 104.746 18.3059H102.024ZM100.496 24.2224L99.6016 27.6881H102.73C103.473 27.6881 104.072 27.5422 104.526 27.25C104.983 26.9578 105.284 26.5269 105.432 25.9537C105.58 25.3841 105.501 24.9528 105.202 24.6605C104.899 24.3683 104.375 24.2224 103.625 24.2224H100.496ZM93.7636 30.8874L97.8394 15.1067H107.405C108.541 15.1067 109.361 15.1545 109.857 15.253C110.357 15.3478 110.778 15.505 111.117 15.7277C111.575 16.0271 111.877 16.4472 112.019 16.9915C112.161 17.5321 112.139 18.1708 111.95 18.9052C111.719 19.796 111.281 20.5267 110.63 21.0963C109.982 21.6699 109.072 22.1225 107.904 22.455C109.126 22.7689 109.95 23.2585 110.368 23.9229C110.786 24.5842 110.847 25.4862 110.554 26.6181C110.193 28.0169 109.512 29.0757 108.513 29.8029C107.512 30.526 106.219 30.8874 104.629 30.8874H93.7636ZM120.562 26.1177C118.958 26.1177 117.837 26.2238 117.2 26.4392C116.563 26.6511 116.173 27.0273 116.035 27.5607C115.942 27.9221 116.011 28.2067 116.24 28.4113C116.471 28.6123 116.844 28.7143 117.359 28.7143C118.201 28.7143 118.889 28.5138 119.415 28.1122C119.941 27.7066 120.308 27.1001 120.518 26.2897L120.562 26.1177ZM119.854 29.2586C119.219 29.8941 118.483 30.3652 117.65 30.6719C116.817 30.979 115.863 31.1322 114.787 31.1322C113.259 31.1322 112.155 30.8544 111.477 30.2993C110.797 29.741 110.589 28.9555 110.852 27.9329C111.211 26.5449 112.181 25.5408 113.759 24.9234C115.339 24.3064 117.798 23.9848 121.142 23.9559C121.147 23.9338 121.161 23.894 121.185 23.8317C121.207 23.7734 121.223 23.726 121.229 23.7002C121.375 23.1343 121.316 22.7142 121.06 22.4329C120.799 22.1555 120.339 22.0168 119.674 22.0168C119.074 22.0168 118.587 22.1189 118.214 22.3199C117.839 22.5245 117.571 22.8308 117.402 23.2364H112.819C113.156 22.0168 113.954 21.1108 115.218 20.5155C116.479 19.9202 118.25 19.6207 120.525 19.6207C122.708 19.6207 124.243 19.9676 125.131 20.6654C126.02 21.3592 126.279 22.4184 125.912 23.8389L124.465 29.4411C124.374 29.792 124.316 30.073 124.292 30.2884C124.27 30.5003 124.272 30.7013 124.302 30.8874H119.698C119.673 30.6245 119.677 30.358 119.703 30.0915C119.731 29.821 119.78 29.5472 119.854 29.2586ZM125.951 30.8874L128.317 21.7282C128.413 21.3556 128.483 21.0159 128.528 20.7016C128.577 20.3877 128.601 20.1175 128.603 19.8876H133.564C133.584 20.0593 133.569 20.2856 133.524 20.5665C133.48 20.8479 133.4 21.2133 133.284 21.6623C134.084 20.9721 134.885 20.4572 135.689 20.1248C136.497 19.7887 137.333 19.6207 138.205 19.6207C139.816 19.6207 140.932 20.0448 141.548 20.8953C142.169 21.7427 142.265 22.9843 141.844 24.6171L140.225 30.8874H135.274L136.852 24.7775C137.069 23.9374 137.07 23.324 136.852 22.9369C136.633 22.5534 136.183 22.3597 135.501 22.3597C134.697 22.3597 134.031 22.6153 133.502 23.1303C132.972 23.6456 132.573 24.4161 132.305 25.4532L130.902 30.8874H125.951ZM146.863 30.8874H141.977L146.053 15.1067H150.939L148.549 24.3611L153.473 19.8876H159.323L153.842 24.7775L157.6 30.8874H151.424L148.295 25.3435L146.863 30.8874Z" fill="#FFFFFE"/>
</svg>
