<svg width="26" height="20" viewBox="0 0 26 20" fill="none" xmlns="http://www.w3.org/2000/svg">
<g clip-path="url(#clip0)">
<path d="M21.8635 16.4749H4.13625C3.66624 16.4744 3.21561 16.2883 2.88326 15.9575C2.55091 15.6267 2.36399 15.1781 2.36353 14.7102V2.35724C2.36399 1.88935 2.55091 1.44076 2.88326 1.10992C3.21561 0.77907 3.66624 0.592996 4.13625 0.592529H21.8635C22.3335 0.592996 22.7842 0.77907 23.1165 1.10992C23.4489 1.44076 23.6358 1.88935 23.6363 2.35724V14.7102C23.6356 15.178 23.4486 15.6264 23.1163 15.9572C22.784 16.288 22.3335 16.4742 21.8635 16.4749ZM4.13625 2.35724V14.7102H21.8635V2.35724H4.13625Z" fill="#E87D1B"/>
<path d="M0.59082 18.2395H25.409V20.0042H0.59082V18.2395Z" fill="#6C21E3"/>
<path d="M10.5624 7.6471H9.67607V10.7353H10.5624V7.6471ZM13.2215 7.6471H12.3352V10.7353H13.2215V7.6471ZM16.9886 11.6177H8.56812V12.5H16.9886V11.6177ZM15.8806 7.6471H14.9943V10.7353H15.8806V7.6471ZM12.7783 4.67357L15.0873 5.8824H10.4694L12.7783 4.67357ZM12.7783 3.67651L8.56812 5.8824V6.76475H16.9886V5.8824L12.7783 3.67651Z" fill="#E87D1B"/>
</g>
<defs>
<clipPath id="clip0">
<rect width="26" height="20" fill="white"/>
</clipPath>
</defs>
</svg>
