<svg width="19" height="24" viewBox="0 0 19 24" fill="none" xmlns="http://www.w3.org/2000/svg">
<path fill-rule="evenodd" clip-rule="evenodd" d="M11.6758 1.5H2.91896C2.53188 1.5 2.16066 1.65804 1.88695 1.93934C1.61325 2.22064 1.45948 2.60218 1.45948 3V21C1.45948 21.3978 1.61325 21.7794 1.88695 22.0607C2.16066 22.342 2.53188 22.5 2.91896 22.5H11.6758C12.0629 22.5 12.4341 22.342 12.7078 22.0607C12.9815 21.7794 13.1353 21.3978 13.1353 21V3C13.1353 2.60218 12.9815 2.22064 12.7078 1.93934C12.4341 1.65804 12.0629 1.5 11.6758 1.5ZM2.91896 0C2.1448 0 1.40235 0.316071 0.854943 0.87868C0.307532 1.44129 0 2.20435 0 3V21C0 21.7956 0.307532 22.5587 0.854943 23.1213C1.40235 23.6839 2.1448 24 2.91896 24H11.6758C12.45 24 13.1924 23.6839 13.7398 23.1213C14.2873 22.5587 14.5948 21.7956 14.5948 21V3C14.5948 2.20435 14.2873 1.44129 13.7398 0.87868C13.1924 0.316071 12.45 0 11.6758 0L2.91896 0Z" fill="#E87D1B"/>
<path fill-rule="evenodd" clip-rule="evenodd" d="M7.29737 21C7.68445 21 8.05567 20.842 8.32938 20.5607C8.60308 20.2794 8.75685 19.8978 8.75685 19.5C8.75685 19.1022 8.60308 18.7206 8.32938 18.4393C8.05567 18.158 7.68445 18 7.29737 18C6.91029 18 6.53907 18.158 6.26536 18.4393C5.99166 18.7206 5.83789 19.1022 5.83789 19.5C5.83789 19.8978 5.99166 20.2794 6.26536 20.5607C6.53907 20.842 6.91029 21 7.29737 21Z" fill="#E87D1B"/>
<path d="M18.7906 12.4108C18.8552 12.3648 18.908 12.3034 18.9445 12.2318C18.981 12.1602 19 12.0806 19 11.9998C19 11.919 18.981 11.8394 18.9445 11.7679C18.908 11.6963 18.8552 11.6348 18.7906 11.5888L12.4662 7.08883C12.3932 7.03693 12.3078 7.00653 12.2192 7.00094C12.1306 6.99535 12.0422 7.01477 11.9636 7.0571C11.885 7.09943 11.8191 7.16306 11.7732 7.2411C11.7272 7.31914 11.7029 7.40861 11.7029 7.49983L18.7906 12.4108ZM12.2029 7.51513L18.4991 11.9951C18.4995 11.996 18.5 11.9977 18.5 11.9998C18.5 12.002 18.4995 12.0037 18.4991 12.0046L12.2029 16.4845V7.51513Z" fill="white" stroke="#6C21E3"/>
<path d="M14.8717 12.4108C14.9363 12.3648 14.9891 12.3034 15.0256 12.2318C15.062 12.1602 15.0811 12.0806 15.0811 11.9998C15.0811 11.919 15.062 11.8394 15.0256 11.7679C14.9891 11.6963 14.9363 11.6348 14.8717 11.5888L8.54724 7.08883C8.47426 7.03693 8.38885 7.00653 8.30026 7.00094C8.21167 6.99535 8.12328 7.01477 8.04466 7.0571C7.96604 7.09943 7.90019 7.16306 7.85423 7.2411C7.80828 7.31914 7.78397 7.40861 7.78394 7.49983L14.8717 12.4108ZM8.28394 7.51513L14.5802 11.9951C14.5806 11.996 14.5811 11.9977 14.5811 11.9998C14.5811 12.002 14.5806 12.0037 14.5802 12.0046L8.28394 16.4845V7.51513Z" fill="white" stroke="#E87D1B"/>
</svg>
