<svg width="50" height="85" viewBox="0 0 50 85" fill="none" xmlns="http://www.w3.org/2000/svg">
<path d="M14.245 66.439H11.044L10.494 68.001H9.18504L11.924 60.345H13.376L16.115 68.001H14.795L14.245 66.439ZM13.893 65.416L12.65 61.863L11.396 65.416H13.893ZM24.643 61.841C25.1196 61.841 25.545 61.94 25.919 62.138C26.3003 62.336 26.5973 62.6293 26.81 63.018C27.03 63.4066 27.14 63.876 27.14 64.426V68.001H25.897V64.613C25.897 64.0703 25.7613 63.656 25.49 63.37C25.2186 63.0766 24.8483 62.93 24.379 62.93C23.9096 62.93 23.5356 63.0766 23.257 63.37C22.9856 63.656 22.85 64.0703 22.85 64.613V68.001H21.607V64.613C21.607 64.0703 21.4713 63.656 21.2 63.37C20.9286 63.0766 20.5583 62.93 20.089 62.93C19.6196 62.93 19.2456 63.0766 18.967 63.37C18.6956 63.656 18.56 64.0703 18.56 64.613V68.001H17.306V61.94H18.56V62.633C18.7653 62.3836 19.0256 62.1893 19.341 62.05C19.6563 61.9106 19.9936 61.841 20.353 61.841C20.837 61.841 21.2696 61.9436 21.651 62.149C22.0323 62.3543 22.3256 62.6513 22.531 63.04C22.7143 62.6733 23.0003 62.3836 23.389 62.171C23.7776 61.951 24.1956 61.841 24.643 61.841ZM34.2906 64.822C34.2906 65.0493 34.276 65.2546 34.2466 65.438H29.6156C29.6523 65.922 29.832 66.3106 30.1546 66.604C30.4773 66.8973 30.8733 67.044 31.3426 67.044C32.0173 67.044 32.494 66.7616 32.7726 66.197H34.1256C33.9423 66.7543 33.6086 67.2126 33.1246 67.572C32.648 67.924 32.054 68.1 31.3426 68.1C30.7633 68.1 30.2426 67.9716 29.7806 67.715C29.326 67.451 28.9666 67.0843 28.7026 66.615C28.446 66.1383 28.3176 65.5883 28.3176 64.965C28.3176 64.3416 28.4423 63.7953 28.6916 63.326C28.9483 62.8493 29.304 62.4826 29.7586 62.226C30.2206 61.9693 30.7486 61.841 31.3426 61.841C31.9146 61.841 32.4243 61.9656 32.8716 62.215C33.319 62.4643 33.6673 62.8163 33.9166 63.271C34.166 63.7183 34.2906 64.2353 34.2906 64.822ZM32.9816 64.426C32.9743 63.964 32.8093 63.5936 32.4866 63.315C32.164 63.0363 31.7643 62.897 31.2876 62.897C30.855 62.897 30.4846 63.0363 30.1766 63.315C29.8686 63.5863 29.6853 63.9566 29.6266 64.426H32.9816ZM38.1207 64.932L40.0787 68.001H38.6597L37.3507 65.944L36.1187 68.001H34.8097L36.7677 65.02L34.8097 61.94H36.2287L37.5377 63.997L38.7697 61.94H40.0787L38.1207 64.932ZM8.14919 78.162C8.14919 77.414 8.32152 76.743 8.66619 76.149C9.01819 75.555 9.49119 75.093 10.0852 74.763C10.6865 74.4256 11.3429 74.257 12.0542 74.257C12.8682 74.257 13.5905 74.4586 14.2212 74.862C14.8592 75.258 15.3212 75.8226 15.6072 76.556H14.1002C13.9022 76.1526 13.6272 75.852 13.2752 75.654C12.9232 75.456 12.5162 75.357 12.0542 75.357C11.5482 75.357 11.0972 75.4706 10.7012 75.698C10.3052 75.9253 9.99352 76.2516 9.76619 76.677C9.54619 77.1023 9.43619 77.5973 9.43619 78.162C9.43619 78.7266 9.54619 79.2216 9.76619 79.647C9.99352 80.0723 10.3052 80.4023 10.7012 80.637C11.0972 80.8643 11.5482 80.978 12.0542 80.978C12.5162 80.978 12.9232 80.879 13.2752 80.681C13.6272 80.483 13.9022 80.1823 14.1002 79.779H15.6072C15.3212 80.5123 14.8592 81.077 14.2212 81.473C13.5905 81.869 12.8682 82.067 12.0542 82.067C11.3355 82.067 10.6792 81.902 10.0852 81.572C9.49119 81.2346 9.01819 80.769 8.66619 80.175C8.32152 79.581 8.14919 78.91 8.14919 78.162ZM16.657 78.943C16.657 78.3343 16.7817 77.7953 17.031 77.326C17.2877 76.8566 17.6323 76.4936 18.065 76.237C18.505 75.973 18.989 75.841 19.517 75.841C19.9937 75.841 20.408 75.9363 20.76 76.127C21.1193 76.3103 21.4053 76.5413 21.618 76.82V75.94H22.883V82.001H21.618V81.099C21.4053 81.385 21.1157 81.6233 20.749 81.814C20.3823 82.0046 19.9643 82.1 19.495 82.1C18.9743 82.1 18.4977 81.968 18.065 81.704C17.6323 81.4326 17.2877 81.0586 17.031 80.582C16.7817 80.098 16.657 79.5516 16.657 78.943ZM21.618 78.965C21.618 78.547 21.53 78.184 21.354 77.876C21.1853 77.568 20.9617 77.3333 20.683 77.172C20.4043 77.0106 20.1037 76.93 19.781 76.93C19.4583 76.93 19.1577 77.0106 18.879 77.172C18.6003 77.326 18.373 77.557 18.197 77.865C18.0283 78.1656 17.944 78.525 17.944 78.943C17.944 79.361 18.0283 79.7276 18.197 80.043C18.373 80.3583 18.6003 80.6003 18.879 80.769C19.165 80.9303 19.4657 81.011 19.781 81.011C20.1037 81.011 20.4043 80.9303 20.683 80.769C20.9617 80.6076 21.1853 80.373 21.354 80.065C21.53 79.7496 21.618 79.383 21.618 78.965ZM25.7841 76.82C25.9674 76.512 26.2094 76.2736 26.5101 76.105C26.8181 75.929 27.1811 75.841 27.5991 75.841V77.139H27.2801C26.7887 77.139 26.4147 77.2636 26.1581 77.513C25.9087 77.7623 25.7841 78.195 25.7841 78.811V82.001H24.5301V75.94H25.7841V76.82ZM28.3338 78.943C28.3338 78.3343 28.4584 77.7953 28.7078 77.326C28.9644 76.8566 29.3091 76.4936 29.7418 76.237C30.1818 75.973 30.6694 75.841 31.2048 75.841C31.6008 75.841 31.9894 75.929 32.3708 76.105C32.7594 76.2736 33.0674 76.501 33.2948 76.787V73.861H34.5598V82.001H33.2948V81.088C33.0894 81.3813 32.8034 81.6233 32.4368 81.814C32.0774 82.0046 31.6631 82.1 31.1938 82.1C30.6658 82.1 30.1818 81.968 29.7418 81.704C29.3091 81.4326 28.9644 81.0586 28.7078 80.582C28.4584 80.098 28.3338 79.5516 28.3338 78.943ZM33.2948 78.965C33.2948 78.547 33.2068 78.184 33.0308 77.876C32.8621 77.568 32.6384 77.3333 32.3598 77.172C32.0811 77.0106 31.7804 76.93 31.4578 76.93C31.1351 76.93 30.8344 77.0106 30.5558 77.172C30.2771 77.326 30.0498 77.557 29.8738 77.865C29.7051 78.1656 29.6208 78.525 29.6208 78.943C29.6208 79.361 29.7051 79.7276 29.8738 80.043C30.0498 80.3583 30.2771 80.6003 30.5558 80.769C30.8418 80.9303 31.1424 81.011 31.4578 81.011C31.7804 81.011 32.0811 80.9303 32.3598 80.769C32.6384 80.6076 32.8621 80.373 33.0308 80.065C33.2068 79.7496 33.2948 79.383 33.2948 78.965ZM38.4068 82.1C37.9302 82.1 37.5012 82.0156 37.1198 81.847C36.7458 81.671 36.4488 81.4363 36.2288 81.143C36.0088 80.8423 35.8915 80.5086 35.8768 80.142H37.1748C37.1968 80.3986 37.3178 80.615 37.5378 80.791C37.7652 80.9596 38.0475 81.044 38.3848 81.044C38.7368 81.044 39.0082 80.978 39.1988 80.846C39.3968 80.7066 39.4958 80.5306 39.4958 80.318C39.4958 80.0906 39.3858 79.922 39.1658 79.812C38.9532 79.702 38.6122 79.581 38.1428 79.449C37.6882 79.3243 37.3178 79.2033 37.0318 79.086C36.7458 78.9686 36.4965 78.789 36.2838 78.547C36.0785 78.305 35.9758 77.986 35.9758 77.59C35.9758 77.2673 36.0712 76.974 36.2618 76.71C36.4525 76.4386 36.7238 76.226 37.0758 76.072C37.4352 75.918 37.8458 75.841 38.3078 75.841C38.9972 75.841 39.5508 76.017 39.9688 76.369C40.3942 76.7136 40.6215 77.1866 40.6508 77.788H39.3968C39.3748 77.5166 39.2648 77.3003 39.0668 77.139C38.8688 76.9776 38.6012 76.897 38.2638 76.897C37.9338 76.897 37.6808 76.9593 37.5048 77.084C37.3288 77.2086 37.2408 77.3736 37.2408 77.579C37.2408 77.7403 37.2995 77.876 37.4168 77.986C37.5342 78.096 37.6772 78.184 37.8458 78.25C38.0145 78.3086 38.2638 78.3856 38.5938 78.481C39.0338 78.5983 39.3932 78.7193 39.6718 78.844C39.9578 78.9613 40.2035 79.1373 40.4088 79.372C40.6142 79.6066 40.7205 79.9183 40.7278 80.307C40.7278 80.6516 40.6325 80.9596 40.4418 81.231C40.2512 81.5023 39.9798 81.715 39.6278 81.869C39.2832 82.023 38.8762 82.1 38.4068 82.1Z" fill="#E87D1B"/>
<g clip-path="url(#clip0)">
<path d="M12.2083 19.1011C11.8135 19.0101 11.4205 19.1955 11.2421 19.5525L10.3839 21.2688C10.2517 21.5348 10.2655 21.8506 10.4199 22.1029C10.5795 22.3569 10.8559 22.5113 11.1528 22.5113H12.0109C12.4846 22.5113 12.8691 22.1269 12.8691 21.6532V19.9369C12.8691 19.5387 12.5962 19.1921 12.2083 19.1011Z" fill="#E87D1B"/>
<path d="M35.7868 20.1876L34.0722 18.473C33.9676 18.3683 33.8302 18.3048 33.6827 18.2636C33.6467 18.2533 33.614 18.2464 33.5763 18.2413C33.5385 18.2378 33.5042 18.2207 33.4647 18.2207H30.8902C30.4165 18.2207 30.0321 18.6052 30.0321 19.0789C30.0321 19.5526 30.4165 19.9371 30.8902 19.9371H32.6065V21.6533H30.8902C30.4165 21.6533 30.0321 22.0378 30.0321 22.5115C30.0321 22.9852 30.4165 23.3697 30.8902 23.3697H33.4647C33.5779 23.3697 33.6895 23.3474 33.7925 23.3027C33.8972 23.2599 33.9933 23.1963 34.0722 23.1156L35.7868 21.401C36.1215 21.0663 36.1215 20.5223 35.7868 20.1876Z" fill="#E87D1B"/>
<path d="M45.2794 25.3947L41.4453 20.7951L45.2777 16.1955C45.4923 15.9398 45.5369 15.5828 45.3962 15.2824C45.2555 14.9803 44.9534 14.7881 44.6204 14.7881H40.3297C40.1014 14.7881 39.8834 14.8791 39.7221 15.0387L37.7552 17.0072L35.7884 15.0404C35.6271 14.8791 35.409 14.7881 35.1808 14.7881H23.989C23.6869 14.7881 23.4072 14.946 23.2527 15.2051L21.4146 18.2705L19.5764 15.2051C19.422 14.946 19.1422 14.7881 18.8402 14.7881H10.2947C9.97034 14.7881 9.6734 14.9718 9.52754 15.2618L4.37867 25.5595C4.24649 25.8256 4.26025 26.1413 4.41472 26.3936C4.57264 26.6477 4.84891 26.8021 5.14585 26.8021H9.43655C9.76093 26.8021 10.0579 26.6184 10.2037 26.3284L10.8233 25.0858H11.1528V25.944C11.1528 26.4177 11.5373 26.8022 12.011 26.8022H18.8761C19.2915 26.8022 19.6381 26.507 19.7171 26.1139L19.8252 26.3285C19.9711 26.6185 20.2662 26.8022 20.5924 26.8022H22.3086C22.633 26.8022 22.93 26.6185 23.0758 26.3285L23.1839 26.1139C23.2629 26.5069 23.6095 26.8022 24.0249 26.8022H35.1808C35.409 26.8022 35.6271 26.7112 35.7884 26.5515L37.7552 24.5847L39.7221 26.5515C39.8834 26.7112 40.1014 26.8022 40.3297 26.8022H44.6204C44.9534 26.8022 45.2554 26.61 45.3979 26.3079C45.5386 26.0075 45.494 25.6505 45.2794 25.3947ZM26.5651 25.0858H24.8832V22.5114C24.8832 22.1132 24.6103 21.7666 24.2223 21.6756C23.8293 21.5846 23.4346 21.7699 23.2561 22.127L21.7784 25.0859H21.121L19.6433 22.127C19.4648 21.7699 19.0735 21.5846 18.6771 21.6756C18.2909 21.7666 18.018 22.1132 18.018 22.5114V25.0858H12.8692V24.2276C12.8692 23.7539 12.4847 23.3695 12.011 23.3695H10.2948C9.97042 23.3695 9.67348 23.5531 9.52762 23.8432L8.9063 25.0858H6.53267L10.8234 16.5043H14.5854V22.5114C14.5854 22.9851 14.9699 23.3696 15.4436 23.3696C15.9173 23.3696 16.3018 22.9851 16.3018 22.5114V16.5043H18.3545L20.6783 20.378C20.9872 20.8946 21.8419 20.8946 22.1492 20.378L24.4765 16.5043H26.5652V25.0858H26.5651ZM40.685 25.0875V25.0858L38.3612 22.762C38.0265 22.4273 37.4825 22.4273 37.1478 22.762L34.8256 25.0858H28.2814V16.5044H34.8256L37.1494 18.8283C37.4841 19.1629 38.0281 19.1629 38.3629 18.8283L40.685 16.5044H42.7892L39.6724 20.246C39.4063 20.5652 39.4063 21.0268 39.6724 21.346L42.7892 25.0875H40.685Z" fill="#E87D1B"/>
</g>
<rect x="1" y="6.06543" width="47.7672" height="30.6045" rx="5" stroke="#E87D1B" stroke-width="2" stroke-linecap="round" stroke-linejoin="round"/>
<defs>
<clipPath id="clip0">
<rect width="41.1905" height="41.1905" fill="white" transform="translate(4.28836 0.200195)"/>
</clipPath>
</defs>
</svg>
