<svg width="60" height="70" viewBox="0 0 60 70" fill="none" xmlns="http://www.w3.org/2000/svg">
<path d="M7.34477 67H6.09077L2.31777 61.291V67H1.06377V59.344H2.31777L6.09077 65.042V59.344H7.34477V67ZM10.2455 60.367V62.611H12.8855V63.634H10.2455V65.977H13.2155V67H8.9915V59.344H13.2155V60.367H10.2455ZM19.2591 59.355V60.378H16.0141V62.633H18.5441V63.656H16.0141V67H14.7601V59.355H19.2591ZM25.3602 59.355V60.378H23.3252V67H22.0712V60.378H20.0252V59.355H25.3602ZM30.7002 56.616L27.7082 68.925H26.4762L29.4572 56.616H30.7002ZM36.2516 67L34.4916 63.942H33.5346V67H32.2806V59.355H34.9206C35.5072 59.355 36.0022 59.4577 36.4056 59.663C36.8162 59.8683 37.1206 60.1433 37.3186 60.488C37.5239 60.8327 37.6266 61.2177 37.6266 61.643C37.6266 62.1417 37.4799 62.5963 37.1866 63.007C36.9006 63.4103 36.4569 63.6853 35.8556 63.832L37.7476 67H36.2516ZM33.5346 62.941H34.9206C35.3899 62.941 35.7419 62.8237 35.9766 62.589C36.2186 62.3543 36.3396 62.039 36.3396 61.643C36.3396 61.247 36.2222 60.939 35.9876 60.719C35.7529 60.4917 35.3972 60.378 34.9206 60.378H33.5346V62.941ZM44.1698 59.355V60.378H42.1348V67H40.8808V60.378H38.8348V59.355H44.1698ZM50.9727 61.555C50.7747 61.1737 50.4997 60.8877 50.1477 60.697C49.7957 60.499 49.3887 60.4 48.9267 60.4C48.4207 60.4 47.9697 60.5137 47.5737 60.741C47.1777 60.9683 46.8661 61.291 46.6387 61.709C46.4187 62.127 46.3087 62.611 46.3087 63.161C46.3087 63.711 46.4187 64.1987 46.6387 64.624C46.8661 65.042 47.1777 65.3647 47.5737 65.592C47.9697 65.8193 48.4207 65.933 48.9267 65.933C49.6087 65.933 50.1624 65.7423 50.5877 65.361C51.0131 64.9797 51.2734 64.4627 51.3687 63.81H48.4977V62.809H52.7107V63.788C52.6301 64.382 52.4174 64.9283 52.0727 65.427C51.7354 65.9257 51.2917 66.3253 50.7417 66.626C50.1991 66.9193 49.5941 67.066 48.9267 67.066C48.2081 67.066 47.5517 66.901 46.9577 66.571C46.3637 66.2337 45.8907 65.768 45.5387 65.174C45.1941 64.58 45.0217 63.909 45.0217 63.161C45.0217 62.413 45.1941 61.742 45.5387 61.148C45.8907 60.554 46.3637 60.092 46.9577 59.762C47.5591 59.4247 48.2154 59.256 48.9267 59.256C49.7407 59.256 50.4631 59.4577 51.0937 59.861C51.7317 60.257 52.1937 60.8217 52.4797 61.555H50.9727ZM56.4666 67.077C55.9532 67.077 55.4912 66.989 55.0806 66.813C54.6699 66.6297 54.3472 66.373 54.1126 66.043C53.8779 65.713 53.7606 65.328 53.7606 64.888H55.1026C55.1319 65.218 55.2602 65.4893 55.4876 65.702C55.7222 65.9147 56.0486 66.021 56.4666 66.021C56.8992 66.021 57.2366 65.9183 57.4786 65.713C57.7206 65.5003 57.8416 65.229 57.8416 64.899C57.8416 64.6423 57.7646 64.4333 57.6106 64.272C57.4639 64.1107 57.2769 63.986 57.0496 63.898C56.8296 63.81 56.5216 63.7147 56.1256 63.612C55.6269 63.48 55.2199 63.348 54.9046 63.216C54.5966 63.0767 54.3326 62.864 54.1126 62.578C53.8926 62.292 53.7826 61.9107 53.7826 61.434C53.7826 60.994 53.8926 60.609 54.1126 60.279C54.3326 59.949 54.6406 59.696 55.0366 59.52C55.4326 59.344 55.8909 59.256 56.4116 59.256C57.1522 59.256 57.7572 59.443 58.2266 59.817C58.7032 60.1837 58.9672 60.6897 59.0186 61.335H57.6326C57.6106 61.0563 57.4786 60.818 57.2366 60.62C56.9946 60.422 56.6756 60.323 56.2796 60.323C55.9202 60.323 55.6269 60.4147 55.3996 60.598C55.1722 60.7813 55.0586 61.0453 55.0586 61.39C55.0586 61.6247 55.1282 61.819 55.2676 61.973C55.4142 62.1197 55.5976 62.237 55.8176 62.325C56.0376 62.413 56.3382 62.5083 56.7196 62.611C57.2256 62.7503 57.6362 62.8897 57.9516 63.029C58.2742 63.1683 58.5456 63.3847 58.7656 63.678C58.9929 63.964 59.1066 64.349 59.1066 64.833C59.1066 65.2217 59.0002 65.5883 58.7876 65.933C58.5822 66.2777 58.2779 66.5563 57.8746 66.769C57.4786 66.9743 57.0092 67.077 56.4666 67.077Z" fill="#E87D1B"/>
<g clip-path="url(#clip0)">
<path d="M42.6666 11.371H16.3338C13.8259 11.371 11.7855 13.4115 11.7855 15.9194V31.0807C11.7855 33.5887 13.8259 35.6291 16.3338 35.6291H42.6666C45.1747 35.6291 47.215 33.5887 47.215 31.0807V15.9194C47.215 13.4115 45.1747 11.371 42.6666 11.371ZM37.6207 32.5968H21.3799C20.7585 29.2782 18.1363 26.6562 14.8177 26.0347V20.9654C18.1363 20.344 20.7584 17.7218 21.3799 14.4032H37.6207C38.2421 17.7218 40.8642 20.3439 44.1828 20.9654V26.0347C40.8641 26.6562 38.2421 29.2783 37.6207 32.5968ZM44.1828 15.9194V17.8473C42.54 17.3441 41.2418 16.0459 40.7388 14.4033H42.6666C43.5026 14.4033 44.1828 15.0835 44.1828 15.9194ZM16.3338 14.4033H18.2618C17.7587 16.046 16.4604 17.3442 14.8177 17.8474V15.9194C14.8177 15.0835 15.4979 14.4033 16.3338 14.4033ZM14.8177 31.0807V29.1528C16.4604 29.6559 17.7586 30.9541 18.2618 32.5968H16.3338C15.4979 32.5968 14.8177 31.9168 14.8177 31.0807ZM42.6666 32.5968H40.7388C41.2418 30.9541 42.54 29.6559 44.1828 29.1529V31.0807C44.1828 31.9168 43.5026 32.5968 42.6666 32.5968ZM29.5003 16.9568C25.8923 16.9568 22.957 19.8922 22.957 23.5002C22.957 27.1082 25.8923 30.0435 29.5003 30.0435C33.1083 30.0435 36.0436 27.1082 36.0436 23.5002C36.0436 19.8922 33.1083 16.9568 29.5003 16.9568ZM29.5003 27.0111C27.5643 27.0111 25.9892 25.4361 25.9892 23.5001C25.9892 21.5641 27.5643 19.989 29.5003 19.989C31.4363 19.989 33.0113 21.5641 33.0113 23.5001C33.0113 25.4361 31.4362 27.0111 29.5003 27.0111ZM33.2906 4.54846C33.2906 3.71118 33.9694 3.03233 34.8067 3.03233H42.0437L41.5996 2.5882C41.0074 1.99615 41.0074 1.03616 41.5996 0.444107C42.1916 -0.148036 43.1516 -0.148036 43.7436 0.444107L46.7753 3.4758C47.1808 3.88089 47.3329 4.49388 47.1296 5.05987C46.9756 5.48997 47.0364 5.35997 43.7436 8.65271C43.4476 8.94883 43.0596 9.09684 42.6717 9.09684C41.3333 9.09684 40.6416 7.46653 41.5997 6.50872L42.0437 6.06459H34.8067C33.9694 6.06459 33.2906 5.38583 33.2906 4.54846ZM25.71 42.4517C25.71 43.289 25.0311 43.9678 24.1938 43.9678H16.9569L17.4009 44.4119C17.9931 45.004 17.9931 45.964 17.4009 46.556C16.809 47.1481 15.8489 47.1482 15.2568 46.556C12.0225 43.3218 12.1559 43.473 12.0358 43.2934C11.7629 42.8858 11.6975 42.352 11.8959 41.8718C12.052 41.4955 12.002 41.6024 15.2568 38.3475C15.8489 37.7554 16.8089 37.7554 17.4009 38.3475C17.9931 38.9396 17.9931 39.8996 17.4009 40.4916L16.9569 40.9356H24.1938C25.0311 40.9356 25.71 41.6144 25.71 42.4517Z" fill="#E87D1B"/>
</g>
<defs>
<clipPath id="clip0">
<rect width="47" height="47" fill="white" transform="translate(6)"/>
</clipPath>
</defs>
</svg>
