<svg width="54" height="67" viewBox="0 0 54 67" fill="none" xmlns="http://www.w3.org/2000/svg">
<path d="M5.49294 59.3099C5.49294 58.5619 5.66527 57.8909 6.00994 57.2969C6.36194 56.7029 6.83494 56.2409 7.42894 55.9109C8.03027 55.5736 8.6866 55.4049 9.39794 55.4049C10.2119 55.4049 10.9343 55.6066 11.5649 56.0099C12.2029 56.4059 12.6649 56.9706 12.9509 57.7039H11.4439C11.2459 57.3006 10.9709 56.9999 10.6189 56.8019C10.2669 56.6039 9.85994 56.5049 9.39794 56.5049C8.89194 56.5049 8.44094 56.6186 8.04494 56.8459C7.64894 57.0733 7.33727 57.3996 7.10994 57.8249C6.88994 58.2503 6.77994 58.7453 6.77994 59.3099C6.77994 59.8746 6.88994 60.3696 7.10994 60.7949C7.33727 61.2203 7.64894 61.5503 8.04494 61.7849C8.44094 62.0123 8.89194 62.1259 9.39794 62.1259C9.85994 62.1259 10.2669 62.0269 10.6189 61.8289C10.9709 61.6309 11.2459 61.3303 11.4439 60.9269H12.9509C12.6649 61.6603 12.2029 62.2249 11.5649 62.6209C10.9343 63.0169 10.2119 63.2149 9.39794 63.2149C8.67927 63.2149 8.02294 63.0499 7.42894 62.7199C6.83494 62.3826 6.36194 61.9169 6.00994 61.3229C5.66527 60.7289 5.49294 60.0579 5.49294 59.3099ZM17.5538 56.9889C18.0158 56.9889 18.4264 57.0879 18.7858 57.2859C19.1524 57.4839 19.4384 57.7773 19.6438 58.1659C19.8564 58.5546 19.9628 59.0239 19.9628 59.5739V63.1489H18.7198V59.7609C18.7198 59.2183 18.5841 58.8039 18.3128 58.5179C18.0414 58.2246 17.6711 58.0779 17.2018 58.0779C16.7324 58.0779 16.3584 58.2246 16.0798 58.5179C15.8084 58.8039 15.6728 59.2183 15.6728 59.7609V63.1489H14.4188V55.0089H15.6728V57.7919C15.8854 57.5353 16.1531 57.3373 16.4758 57.1979C16.8058 57.0586 17.1651 56.9889 17.5538 56.9889ZM27.1173 59.9699C27.1173 60.1973 27.1026 60.4026 27.0733 60.5859H22.4423C22.479 61.0699 22.6586 61.4586 22.9813 61.7519C23.304 62.0453 23.7 62.1919 24.1693 62.1919C24.844 62.1919 25.3206 61.9096 25.5993 61.3449H26.9523C26.769 61.9023 26.4353 62.3606 25.9513 62.7199C25.4746 63.0719 24.8806 63.2479 24.1693 63.2479C23.59 63.2479 23.0693 63.1196 22.6073 62.8629C22.1526 62.5989 21.7933 62.2323 21.5293 61.7629C21.2726 61.2863 21.1443 60.7363 21.1443 60.1129C21.1443 59.4896 21.269 58.9433 21.5183 58.4739C21.775 57.9973 22.1306 57.6306 22.5853 57.3739C23.0473 57.1173 23.5753 56.9889 24.1693 56.9889C24.7413 56.9889 25.251 57.1136 25.6983 57.3629C26.1456 57.6123 26.494 57.9643 26.7433 58.4189C26.9926 58.8663 27.1173 59.3833 27.1173 59.9699ZM25.8083 59.5739C25.801 59.1119 25.636 58.7416 25.3133 58.4629C24.9906 58.1843 24.591 58.0449 24.1143 58.0449C23.6816 58.0449 23.3113 58.1843 23.0033 58.4629C22.6953 58.7343 22.512 59.1046 22.4533 59.5739H25.8083ZM27.9334 60.0909C27.9334 59.4823 28.058 58.9433 28.3074 58.4739C28.564 58.0046 28.9087 57.6416 29.3414 57.3849C29.7814 57.1209 30.269 56.9889 30.8044 56.9889C31.2737 56.9889 31.688 57.0843 32.0474 57.2749C32.414 57.4656 32.6964 57.6966 32.8944 57.9679V57.0879H34.1594V66.0309H32.8944V62.2689C32.6964 62.5403 32.4104 62.7713 32.0364 62.9619C31.6624 63.1526 31.237 63.2479 30.7604 63.2479C30.2397 63.2479 29.763 63.1159 29.3304 62.8519C28.905 62.5806 28.564 62.2066 28.3074 61.7299C28.058 61.2459 27.9334 60.6996 27.9334 60.0909ZM32.8944 60.1129C32.8944 59.6949 32.8064 59.3319 32.6304 59.0239C32.4617 58.7159 32.238 58.4813 31.9594 58.3199C31.6807 58.1586 31.38 58.0779 31.0574 58.0779C30.7347 58.0779 30.434 58.1586 30.1554 58.3199C29.8767 58.4739 29.6494 58.7049 29.4734 59.0129C29.3047 59.3136 29.2204 59.6729 29.2204 60.0909C29.2204 60.5089 29.3047 60.8756 29.4734 61.1909C29.6494 61.5063 29.8767 61.7483 30.1554 61.9169C30.4414 62.0783 30.742 62.1589 31.0574 62.1589C31.38 62.1589 31.6807 62.0783 31.9594 61.9169C32.238 61.7556 32.4617 61.5209 32.6304 61.2129C32.8064 60.8976 32.8944 60.5309 32.8944 60.1129ZM41.2954 57.0879V63.1489H40.0414V62.4339C39.8434 62.6833 39.5831 62.8813 39.2604 63.0279C38.9451 63.1673 38.6078 63.2369 38.2484 63.2369C37.7718 63.2369 37.3428 63.1379 36.9614 62.9399C36.5874 62.7419 36.2904 62.4486 36.0704 62.0599C35.8578 61.6713 35.7514 61.2019 35.7514 60.6519V57.0879H36.9944V60.4649C36.9944 61.0076 37.1301 61.4256 37.4014 61.7189C37.6728 62.0049 38.0431 62.1479 38.5124 62.1479C38.9818 62.1479 39.3521 62.0049 39.6234 61.7189C39.9021 61.4256 40.0414 61.0076 40.0414 60.4649V57.0879H41.2954ZM48.505 59.9699C48.505 60.1973 48.4903 60.4026 48.461 60.5859H43.83C43.8667 61.0699 44.0463 61.4586 44.369 61.7519C44.6917 62.0453 45.0877 62.1919 45.557 62.1919C46.2317 62.1919 46.7083 61.9096 46.987 61.3449H48.34C48.1567 61.9023 47.823 62.3606 47.339 62.7199C46.8623 63.0719 46.2683 63.2479 45.557 63.2479C44.9777 63.2479 44.457 63.1196 43.995 62.8629C43.5403 62.5989 43.181 62.2323 42.917 61.7629C42.6603 61.2863 42.532 60.7363 42.532 60.1129C42.532 59.4896 42.6567 58.9433 42.906 58.4739C43.1627 57.9973 43.5183 57.6306 43.973 57.3739C44.435 57.1173 44.963 56.9889 45.557 56.9889C46.129 56.9889 46.6387 57.1136 47.086 57.3629C47.5333 57.6123 47.8817 57.9643 48.131 58.4189C48.3803 58.8663 48.505 59.3833 48.505 59.9699ZM47.196 59.5739C47.1887 59.1119 47.0237 58.7416 46.701 58.4629C46.3783 58.1843 45.9787 58.0449 45.502 58.0449C45.0693 58.0449 44.699 58.1843 44.391 58.4629C44.083 58.7343 43.8997 59.1046 43.841 59.5739H47.196Z" fill="#E87D1B"/>
<path d="M6.11732 5.54492H13.5396C13.9392 5.54492 14.2631 5.86885 14.2631 6.26841C14.2631 6.66798 13.9392 6.99191 13.5396 6.99191H6.11732C5.71776 6.99191 5.39383 6.66798 5.39383 6.26841C5.39383 5.86885 5.71776 5.54492 6.11732 5.54492Z" fill="#E87D1B" stroke="#E87D1B"/>
<path d="M42.6024 5.54492H47.6688C47.6857 5.54492 47.7573 5.55462 47.8464 5.68517C47.9338 5.81322 48.004 6.01792 48.004 6.26841C48.004 6.51891 47.9338 6.72361 47.8464 6.85166C47.7573 6.98221 47.6857 6.99191 47.6688 6.99191H42.6024C42.5854 6.99191 42.5139 6.98221 42.4248 6.85166C42.3374 6.72361 42.2672 6.51891 42.2672 6.26841C42.2672 6.01792 42.3374 5.81322 42.4248 5.68517C42.5139 5.55462 42.5854 5.54492 42.6024 5.54492Z" fill="#E87D1B" stroke="#E87D1B"/>
<path d="M29.3097 10.9419H5.8653C5.70631 10.9419 5.39383 11.1521 5.39383 11.6654C5.39383 12.1786 5.70631 12.3889 5.8653 12.3889H29.3098C29.4687 12.3889 29.7812 12.1786 29.7812 11.6654L29.3097 10.9419ZM29.3097 10.9419C29.4687 10.9419 29.7812 11.1521 29.7812 11.6654L29.3097 10.9419Z" fill="#E87D1B" stroke="#E87D1B"/>
<path d="M30.3139 16.1626H5.90526C5.70766 16.1626 5.39383 16.3933 5.39383 16.8861C5.39383 17.3789 5.70766 17.6096 5.90526 17.6096H30.314C30.5116 17.6096 30.8254 17.3789 30.8254 16.8861L30.3139 16.1626ZM30.3139 16.1626C30.5115 16.1626 30.8253 16.3932 30.8254 16.8861L30.3139 16.1626Z" fill="#E87D1B" stroke="#E87D1B"/>
<rect x="1" y="1" width="51.2532" height="25.1487" rx="1" stroke="#E87D1B" stroke-width="2"/>
<rect x="5.7209" y="22.4277" width="1.08836" height="1.08836" rx="0.54418" fill="#E87D1B" stroke="#E87D1B"/>
<rect x="8.85344" y="22.4277" width="1.08836" height="1.08836" rx="0.54418" fill="#E87D1B" stroke="#E87D1B"/>
<rect x="11.986" y="22.4277" width="1.08836" height="1.08836" rx="0.54418" fill="#E87D1B" stroke="#E87D1B"/>
<rect x="15.1185" y="22.4277" width="1.08836" height="1.08836" rx="0.54418" fill="#E87D1B" stroke="#E87D1B"/>
<rect x="18.2511" y="22.4277" width="1.08836" height="1.08836" rx="0.54418" fill="#E87D1B" stroke="#E87D1B"/>
<path d="M38.1154 17.8744L38.1163 17.8734L38.1154 17.8744Z" fill="#E87D1B" stroke="#E87D1B"/>
<path d="M43.811 17.8744L43.8119 17.8734L43.811 17.8744Z" fill="#E87D1B" stroke="#E87D1B"/>
<path d="M40.9632 17.8744L40.9641 17.8734L40.9632 17.8744Z" fill="#E87D1B" stroke="#E87D1B"/>
<path d="M46.6588 17.8744L46.6596 17.8734L46.6588 17.8744Z" fill="#E87D1B" stroke="#E87D1B"/>
</svg>
