<svg width="73" height="86" viewBox="0 0 73 86" fill="none" xmlns="http://www.w3.org/2000/svg">
<path d="M8.52077 65.161C8.52077 64.413 8.6931 63.742 9.03777 63.148C9.38977 62.554 9.86277 62.092 10.4568 61.762C11.0581 61.4247 11.7144 61.256 12.4258 61.256C13.2398 61.256 13.9621 61.4577 14.5928 61.861C15.2308 62.257 15.6928 62.8217 15.9788 63.555H14.4718C14.2738 63.1517 13.9988 62.851 13.6468 62.653C13.2948 62.455 12.8878 62.356 12.4258 62.356C11.9198 62.356 11.4688 62.4697 11.0728 62.697C10.6768 62.9243 10.3651 63.2507 10.1378 63.676C9.91777 64.1013 9.80777 64.5963 9.80777 65.161C9.80777 65.7257 9.91777 66.2207 10.1378 66.646C10.3651 67.0713 10.6768 67.4013 11.0728 67.636C11.4688 67.8633 11.9198 67.977 12.4258 67.977C12.8878 67.977 13.2948 67.878 13.6468 67.68C13.9988 67.482 14.2738 67.1813 14.4718 66.778H15.9788C15.6928 67.5113 15.2308 68.076 14.5928 68.472C13.9621 68.868 13.2398 69.066 12.4258 69.066C11.7071 69.066 11.0508 68.901 10.4568 68.571C9.86277 68.2337 9.38977 67.768 9.03777 67.174C8.6931 66.58 8.52077 65.909 8.52077 65.161ZM20.0756 69.099C19.5036 69.099 18.9866 68.9707 18.5246 68.714C18.0626 68.45 17.6996 68.0833 17.4356 67.614C17.1716 67.1373 17.0396 66.5873 17.0396 65.964C17.0396 65.348 17.1752 64.8017 17.4466 64.325C17.7179 63.8483 18.0882 63.4817 18.5576 63.225C19.0269 62.9683 19.5512 62.84 20.1306 62.84C20.7099 62.84 21.2342 62.9683 21.7036 63.225C22.1729 63.4817 22.5432 63.8483 22.8146 64.325C23.0859 64.8017 23.2216 65.348 23.2216 65.964C23.2216 66.58 23.0822 67.1263 22.8036 67.603C22.5249 68.0797 22.1436 68.45 21.6596 68.714C21.1829 68.9707 20.6549 69.099 20.0756 69.099ZM20.0756 68.01C20.3982 68.01 20.6989 67.933 20.9776 67.779C21.2636 67.625 21.4946 67.394 21.6706 67.086C21.8466 66.778 21.9346 66.404 21.9346 65.964C21.9346 65.524 21.8502 65.1537 21.6816 64.853C21.5129 64.545 21.2892 64.314 21.0106 64.16C20.7319 64.006 20.4312 63.929 20.1086 63.929C19.7859 63.929 19.4852 64.006 19.2066 64.16C18.9352 64.314 18.7189 64.545 18.5576 64.853C18.3962 65.1537 18.3156 65.524 18.3156 65.964C18.3156 66.6167 18.4806 67.1227 18.8106 67.482C19.1479 67.834 19.5696 68.01 20.0756 68.01ZM25.7152 63.819C25.8986 63.511 26.1406 63.2727 26.4412 63.104C26.7492 62.928 27.1122 62.84 27.5302 62.84V64.138H27.2112C26.7199 64.138 26.3459 64.2627 26.0892 64.512C25.8399 64.7613 25.7152 65.194 25.7152 65.81V69H24.4612V62.939H25.7152V63.819ZM29.9369 63.83C30.1496 63.5513 30.4392 63.3167 30.8059 63.126C31.1726 62.9353 31.5869 62.84 32.0489 62.84C32.5769 62.84 33.0572 62.972 33.4899 63.236C33.9299 63.4927 34.2746 63.8557 34.5239 64.325C34.7732 64.7943 34.8979 65.3333 34.8979 65.942C34.8979 66.5507 34.7732 67.097 34.5239 67.581C34.2746 68.0577 33.9299 68.4317 33.4899 68.703C33.0572 68.967 32.5769 69.099 32.0489 69.099C31.5869 69.099 31.1762 69.0073 30.8169 68.824C30.4576 68.6333 30.1642 68.3987 29.9369 68.12V71.882H28.6829V62.939H29.9369V63.83ZM33.6219 65.942C33.6219 65.524 33.5339 65.1647 33.3579 64.864C33.1892 64.556 32.9619 64.325 32.6759 64.171C32.3972 64.0097 32.0966 63.929 31.7739 63.929C31.4586 63.929 31.1579 64.0097 30.8719 64.171C30.5932 64.3323 30.3659 64.567 30.1899 64.875C30.0212 65.183 29.9369 65.546 29.9369 65.964C29.9369 66.382 30.0212 66.7487 30.1899 67.064C30.3659 67.372 30.5932 67.6067 30.8719 67.768C31.1579 67.9293 31.4586 68.01 31.7739 68.01C32.0966 68.01 32.3972 67.9293 32.6759 67.768C32.9619 67.5993 33.1892 67.3573 33.3579 67.042C33.5339 66.7267 33.6219 66.36 33.6219 65.942ZM38.767 69.099C38.195 69.099 37.678 68.9707 37.216 68.714C36.754 68.45 36.391 68.0833 36.127 67.614C35.863 67.1373 35.731 66.5873 35.731 65.964C35.731 65.348 35.8667 64.8017 36.138 64.325C36.4093 63.8483 36.7797 63.4817 37.249 63.225C37.7183 62.9683 38.2427 62.84 38.822 62.84C39.4013 62.84 39.9257 62.9683 40.395 63.225C40.8643 63.4817 41.2347 63.8483 41.506 64.325C41.7773 64.8017 41.913 65.348 41.913 65.964C41.913 66.58 41.7737 67.1263 41.495 67.603C41.2163 68.0797 40.835 68.45 40.351 68.714C39.8743 68.9707 39.3463 69.099 38.767 69.099ZM38.767 68.01C39.0897 68.01 39.3903 67.933 39.669 67.779C39.955 67.625 40.186 67.394 40.362 67.086C40.538 66.778 40.626 66.404 40.626 65.964C40.626 65.524 40.5417 65.1537 40.373 64.853C40.2043 64.545 39.9807 64.314 39.702 64.16C39.4233 64.006 39.1227 63.929 38.8 63.929C38.4773 63.929 38.1767 64.006 37.898 64.16C37.6267 64.314 37.4103 64.545 37.249 64.853C37.0877 65.1537 37.007 65.524 37.007 65.964C37.007 66.6167 37.172 67.1227 37.502 67.482C37.8393 67.834 38.261 68.01 38.767 68.01ZM44.4066 63.819C44.59 63.511 44.832 63.2727 45.1326 63.104C45.4406 62.928 45.8036 62.84 46.2216 62.84V64.138H45.9026C45.4113 64.138 45.0373 64.2627 44.7806 64.512C44.5313 64.7613 44.4066 65.194 44.4066 65.81V69H43.1526V62.939H44.4066V63.819ZM46.9563 65.942C46.9563 65.3333 47.081 64.7943 47.3303 64.325C47.587 63.8557 47.9316 63.4927 48.3643 63.236C48.8043 62.972 49.2883 62.84 49.8163 62.84C50.293 62.84 50.7073 62.9353 51.0593 63.126C51.4186 63.3093 51.7047 63.5403 51.9173 63.819V62.939H53.1823V69H51.9173V68.098C51.7047 68.384 51.415 68.6223 51.0483 68.813C50.6816 69.0037 50.2637 69.099 49.7943 69.099C49.2736 69.099 48.797 68.967 48.3643 68.703C47.9316 68.4317 47.587 68.0577 47.3303 67.581C47.081 67.097 46.9563 66.5507 46.9563 65.942ZM51.9173 65.964C51.9173 65.546 51.8293 65.183 51.6533 64.875C51.4846 64.567 51.261 64.3323 50.9823 64.171C50.7036 64.0097 50.403 63.929 50.0803 63.929C49.7576 63.929 49.457 64.0097 49.1783 64.171C48.8996 64.325 48.6723 64.556 48.4963 64.864C48.3276 65.1647 48.2433 65.524 48.2433 65.942C48.2433 66.36 48.3276 66.7267 48.4963 67.042C48.6723 67.3573 48.8996 67.5993 49.1783 67.768C49.4643 67.9293 49.765 68.01 50.0803 68.01C50.403 68.01 50.7036 67.9293 50.9823 67.768C51.261 67.6067 51.4846 67.372 51.6533 67.064C51.8293 66.7487 51.9173 66.382 51.9173 65.964ZM56.2924 63.962V67.317C56.2924 67.5443 56.3437 67.7093 56.4464 67.812C56.5564 67.9073 56.7397 67.955 56.9964 67.955H57.7664V69H56.7764C56.2117 69 55.7791 68.868 55.4784 68.604C55.1777 68.34 55.0274 67.911 55.0274 67.317V63.962H54.3124V62.939H55.0274V61.432H56.2924V62.939H57.7664V63.962H56.2924ZM64.4772 65.821C64.4772 66.0483 64.4625 66.2537 64.4332 66.437H59.8022C59.8388 66.921 60.0185 67.3097 60.3412 67.603C60.6638 67.8963 61.0598 68.043 61.5292 68.043C62.2038 68.043 62.6805 67.7607 62.9592 67.196H64.3122C64.1288 67.7533 63.7952 68.2117 63.3112 68.571C62.8345 68.923 62.2405 69.099 61.5292 69.099C60.9498 69.099 60.4292 68.9707 59.9672 68.714C59.5125 68.45 59.1532 68.0833 58.8892 67.614C58.6325 67.1373 58.5042 66.5873 58.5042 65.964C58.5042 65.3407 58.6288 64.7943 58.8782 64.325C59.1348 63.8483 59.4905 63.4817 59.9452 63.225C60.4072 62.9683 60.9352 62.84 61.5292 62.84C62.1012 62.84 62.6108 62.9647 63.0582 63.214C63.5055 63.4633 63.8538 63.8153 64.1032 64.27C64.3525 64.7173 64.4772 65.2343 64.4772 65.821ZM63.1682 65.425C63.1608 64.963 62.9958 64.5927 62.6732 64.314C62.3505 64.0353 61.9508 63.896 61.4742 63.896C61.0415 63.896 60.6712 64.0353 60.3632 64.314C60.0552 64.5853 59.8718 64.9557 59.8132 65.425H63.1682ZM20.1492 79.161C20.1492 78.413 20.3215 77.742 20.6662 77.148C21.0182 76.554 21.4912 76.092 22.0852 75.762C22.6865 75.4247 23.3429 75.256 24.0542 75.256C24.8682 75.256 25.5905 75.4577 26.2212 75.861C26.8592 76.257 27.3212 76.8217 27.6072 77.555H26.1002C25.9022 77.1517 25.6272 76.851 25.2752 76.653C24.9232 76.455 24.5162 76.356 24.0542 76.356C23.5482 76.356 23.0972 76.4697 22.7012 76.697C22.3052 76.9243 21.9935 77.2507 21.7662 77.676C21.5462 78.1013 21.4362 78.5963 21.4362 79.161C21.4362 79.7257 21.5462 80.2207 21.7662 80.646C21.9935 81.0713 22.3052 81.4013 22.7012 81.636C23.0972 81.8633 23.5482 81.977 24.0542 81.977C24.5162 81.977 24.9232 81.878 25.2752 81.68C25.6272 81.482 25.9022 81.1813 26.1002 80.778H27.6072C27.3212 81.5113 26.8592 82.076 26.2212 82.472C25.5905 82.868 24.8682 83.066 24.0542 83.066C23.3355 83.066 22.6792 82.901 22.0852 82.571C21.4912 82.2337 21.0182 81.768 20.6662 81.174C20.3215 80.58 20.1492 79.909 20.1492 79.161ZM28.657 79.942C28.657 79.3333 28.7817 78.7943 29.031 78.325C29.2877 77.8557 29.6323 77.4927 30.065 77.236C30.505 76.972 30.989 76.84 31.517 76.84C31.9937 76.84 32.408 76.9353 32.76 77.126C33.1193 77.3093 33.4053 77.5403 33.618 77.819V76.939H34.883V83H33.618V82.098C33.4053 82.384 33.1157 82.6223 32.749 82.813C32.3823 83.0037 31.9643 83.099 31.495 83.099C30.9743 83.099 30.4977 82.967 30.065 82.703C29.6323 82.4317 29.2877 82.0577 29.031 81.581C28.7817 81.097 28.657 80.5507 28.657 79.942ZM33.618 79.964C33.618 79.546 33.53 79.183 33.354 78.875C33.1853 78.567 32.9617 78.3323 32.683 78.171C32.4043 78.0097 32.1037 77.929 31.781 77.929C31.4583 77.929 31.1577 78.0097 30.879 78.171C30.6003 78.325 30.373 78.556 30.197 78.864C30.0283 79.1647 29.944 79.524 29.944 79.942C29.944 80.36 30.0283 80.7267 30.197 81.042C30.373 81.3573 30.6003 81.5993 30.879 81.768C31.165 81.9293 31.4657 82.01 31.781 82.01C32.1037 82.01 32.4043 81.9293 32.683 81.768C32.9617 81.6067 33.1853 81.372 33.354 81.064C33.53 80.7487 33.618 80.382 33.618 79.964ZM37.7841 77.819C37.9674 77.511 38.2094 77.2727 38.5101 77.104C38.8181 76.928 39.1811 76.84 39.5991 76.84V78.138H39.2801C38.7887 78.138 38.4147 78.2627 38.1581 78.512C37.9087 78.7613 37.7841 79.194 37.7841 79.81V83H36.5301V76.939H37.7841V77.819ZM40.3338 79.942C40.3338 79.3333 40.4584 78.7943 40.7078 78.325C40.9644 77.8557 41.3091 77.4927 41.7418 77.236C42.1818 76.972 42.6694 76.84 43.2048 76.84C43.6008 76.84 43.9894 76.928 44.3708 77.104C44.7594 77.2727 45.0674 77.5 45.2948 77.786V74.86H46.5598V83H45.2948V82.087C45.0894 82.3803 44.8034 82.6223 44.4368 82.813C44.0774 83.0037 43.6631 83.099 43.1938 83.099C42.6658 83.099 42.1818 82.967 41.7418 82.703C41.3091 82.4317 40.9644 82.0577 40.7078 81.581C40.4584 81.097 40.3338 80.5507 40.3338 79.942ZM45.2948 79.964C45.2948 79.546 45.2068 79.183 45.0308 78.875C44.8621 78.567 44.6384 78.3323 44.3598 78.171C44.0811 78.0097 43.7804 77.929 43.4578 77.929C43.1351 77.929 42.8344 78.0097 42.5558 78.171C42.2771 78.325 42.0498 78.556 41.8738 78.864C41.7051 79.1647 41.6208 79.524 41.6208 79.942C41.6208 80.36 41.7051 80.7267 41.8738 81.042C42.0498 81.3573 42.2771 81.5993 42.5558 81.768C42.8418 81.9293 43.1424 82.01 43.4578 82.01C43.7804 82.01 44.0811 81.9293 44.3598 81.768C44.6384 81.6067 44.8621 81.372 45.0308 81.064C45.2068 80.7487 45.2948 80.382 45.2948 79.964ZM50.4068 83.099C49.9302 83.099 49.5012 83.0147 49.1198 82.846C48.7458 82.67 48.4488 82.4353 48.2288 82.142C48.0088 81.8413 47.8915 81.5077 47.8768 81.141H49.1748C49.1968 81.3977 49.3178 81.614 49.5378 81.79C49.7652 81.9587 50.0475 82.043 50.3848 82.043C50.7368 82.043 51.0082 81.977 51.1988 81.845C51.3968 81.7057 51.4958 81.5297 51.4958 81.317C51.4958 81.0897 51.3858 80.921 51.1658 80.811C50.9532 80.701 50.6122 80.58 50.1428 80.448C49.6882 80.3233 49.3178 80.2023 49.0318 80.085C48.7458 79.9677 48.4965 79.788 48.2838 79.546C48.0785 79.304 47.9758 78.985 47.9758 78.589C47.9758 78.2663 48.0712 77.973 48.2618 77.709C48.4525 77.4377 48.7238 77.225 49.0758 77.071C49.4352 76.917 49.8458 76.84 50.3078 76.84C50.9972 76.84 51.5508 77.016 51.9688 77.368C52.3942 77.7127 52.6215 78.1857 52.6508 78.787H51.3968C51.3748 78.5157 51.2648 78.2993 51.0668 78.138C50.8688 77.9767 50.6012 77.896 50.2638 77.896C49.9338 77.896 49.6808 77.9583 49.5048 78.083C49.3288 78.2077 49.2408 78.3727 49.2408 78.578C49.2408 78.7393 49.2995 78.875 49.4168 78.985C49.5342 79.095 49.6772 79.183 49.8458 79.249C50.0145 79.3077 50.2638 79.3847 50.5938 79.48C51.0338 79.5973 51.3932 79.7183 51.6718 79.843C51.9578 79.9603 52.2035 80.1363 52.4088 80.371C52.6142 80.6057 52.7205 80.9173 52.7278 81.306C52.7278 81.6507 52.6325 81.9587 52.4418 82.23C52.2512 82.5013 51.9798 82.714 51.6278 82.868C51.2832 83.022 50.8762 83.099 50.4068 83.099Z" fill="#E87D1B"/>
<g clip-path="url(#clip0)">
<path d="M35.6875 42H17.3125C16.588 42 16 41.412 16 40.6875V10.9375C16 9.24875 17.3737 7.875 19.0625 7.875H32.1875C32.912 7.875 33.5 8.463 33.5 9.1875C33.5 9.912 32.912 10.5 32.1875 10.5H19.0625C18.8245 10.5 18.625 10.6995 18.625 10.9375V39.375H34.375V24.4475C34.375 23.723 34.963 23.135 35.6875 23.135C36.412 23.135 37 23.723 37 24.4475V40.6875C37 41.412 36.412 42 35.6875 42Z" fill="#E87D1B"/>
<path d="M32.1875 10.5H20.8125C20.088 10.5 19.5 9.912 19.5 9.1875V6.5625C19.5 4.87375 20.8737 3.5 22.5625 3.5H30.4375C32.1263 3.5 33.5 4.87375 33.5 6.5625V9.1875C33.5 9.912 32.912 10.5 32.1875 10.5ZM22.125 7.875H30.875V6.5625C30.875 6.321 30.679 6.125 30.4375 6.125H22.5625C22.321 6.125 22.125 6.321 22.125 6.5625V7.875Z" fill="#E87D1B"/>
<path d="M26.5 6.125C25.7755 6.125 25.1875 5.537 25.1875 4.8125V1.3125C25.1875 0.588 25.7755 0 26.5 0C27.2245 0 27.8125 0.588 27.8125 1.3125V4.8125C27.8125 5.537 27.2245 6.125 26.5 6.125Z" fill="#E87D1B"/>
<path d="M47.9375 42H33.0625C32.338 42 31.75 41.412 31.75 40.6875C31.75 39.963 32.338 39.375 33.0625 39.375H47.9375C48.662 39.375 49.25 39.963 49.25 40.6875C49.25 41.412 48.662 42 47.9375 42Z" fill="#E87D1B"/>
<path d="M42.25 42C41.5255 42 40.9375 41.412 40.9375 40.6875V34.1338C40.9375 33.4093 41.5255 32.8213 42.25 32.8213C42.9745 32.8213 43.5625 33.4093 43.5625 34.1338V40.6875C43.5625 41.412 42.9745 42 42.25 42Z" fill="#E87D1B"/>
<path d="M42.25 35C40.3198 35 38.75 33.4302 38.75 31.5C38.75 29.5697 40.3198 28 42.25 28C44.1803 28 45.75 29.5697 45.75 31.5C45.75 33.4302 44.1803 35 42.25 35ZM42.25 30.625C41.767 30.625 41.375 31.017 41.375 31.5C41.375 31.983 41.767 32.375 42.25 32.375C42.733 32.375 43.125 31.983 43.125 31.5C43.125 31.017 42.733 30.625 42.25 30.625Z" fill="#E87D1B"/>
<path d="M29.5625 42H23.4375C22.713 42 22.125 41.412 22.125 40.6875V32.8125C22.125 32.088 22.713 31.5 23.4375 31.5H29.5625C30.287 31.5 30.875 32.088 30.875 32.8125V40.6875C30.875 41.412 30.287 42 29.5625 42ZM24.75 39.375H28.25V34.125H24.75V39.375Z" fill="#E87D1B"/>
<path d="M28.6875 26.25H24.3125C23.588 26.25 23 25.662 23 24.9375C23 24.213 23.588 23.625 24.3125 23.625H28.6875C29.412 23.625 30 24.213 30 24.9375C30 25.662 29.412 26.25 28.6875 26.25Z" fill="#E87D1B"/>
<path d="M28.6875 15.75H24.3125C23.588 15.75 23 15.162 23 14.4375C23 13.713 23.588 13.125 24.3125 13.125H28.6875C29.412 13.125 30 13.713 30 14.4375C30 15.162 29.412 15.75 28.6875 15.75Z" fill="#E87D1B"/>
<path d="M28.6875 21H24.3125C23.588 21 23 20.412 23 19.6875C23 18.963 23.588 18.375 24.3125 18.375H28.6875C29.412 18.375 30 18.963 30 19.6875C30 20.412 29.412 21 28.6875 21Z" fill="#E87D1B"/>
<rect x="37.05" y="7.3999" width="18.8" height="12.5" rx="2" stroke="#E87D1B" stroke-width="2" stroke-linecap="round" stroke-linejoin="round"/>
<line x1="38" y1="11.6001" x2="54.9" y2="11.6001" stroke="#E87D1B" stroke-width="2" stroke-linecap="round" stroke-linejoin="round"/>
</g>
<defs>
<clipPath id="clip0">
<rect width="42" height="42" fill="white" transform="translate(16)"/>
</clipPath>
</defs>
</svg>
