<svg width="95" height="415" viewBox="0 0 95 415" fill="none" xmlns="http://www.w3.org/2000/svg">
<path d="M85.2206 411.801L104.265 14.1323C104.265 14.1323 96.2128 24.1926 91.9286 31.5117C68.0414 72.321 89.7994 118.649 83.761 160.356C68.5004 265.762 4.65838 252.961 4.65837 314.148C4.65838 375.334 70.5542 416.681 85.2206 411.801Z" fill="#F9D8BB"/>
<path d="M110.858 11.5051L110.904 8.62301C110.904 8.62301 117.995 2.39503 110.858 11.5051L104.394 413.715C87.8597 418.594 -4.72697 374.955 0.188739 310.53C5.10445 246.104 67.8499 261.973 85.0538 156.6C91.8611 114.905 58.7121 71.085 92.0587 33.4855C102.087 22.178 107.788 15.4231 110.858 11.5051Z" fill="url(#paint0_linear)" fill-opacity="0.5"/>
<path d="M98.1631 411.732L113.499 7.01432C113.499 7.01432 123.477 -20.2823 91.978 32.8208C60.4795 85.9239 95.8998 114.905 89.0925 156.6C71.8886 261.973 15.8303 246.94 10.9145 311.366C5.99883 375.791 81.629 416.611 98.1631 411.732Z" fill="url(#paint1_linear)"/>
<defs>
<linearGradient id="paint0_linear" x1="-30.429" y1="-12.5174" x2="-185.049" y2="290.102" gradientUnits="userSpaceOnUse">
<stop stop-color="#FFBF61"/>
<stop offset="0.758361" stop-color="#FE8618"/>
<stop offset="1" stop-color="#FF396D"/>
</linearGradient>
<linearGradient id="paint1_linear" x1="-26.3906" y1="-12.5176" x2="-212.513" y2="237.624" gradientUnits="userSpaceOnUse">
<stop stop-color="#FFBF61"/>
<stop offset="0.758361" stop-color="#FE8618"/>
<stop offset="1" stop-color="#FF396D"/>
</linearGradient>
</defs>
</svg>
