<svg width="125" height="390" viewBox="0 0 125 390" fill="none" xmlns="http://www.w3.org/2000/svg">
<mask id="mask0" mask-type="alpha" maskUnits="userSpaceOnUse" x="0" y="0" width="125" height="390">
<path d="M0 0.149902L125 50.1499V389.15L0 339.15V0.149902Z" fill="#C4C4C4"/>
</mask>
<g mask="url(#mask0)">
<path d="M137 -44.8501L-13 15.1499" stroke="#064372" stroke-width="2"/>
<path d="M137 -29.8501L-13 30.1499" stroke="#064372" stroke-width="2"/>
<path d="M137 -14.8501L-13 45.1499" stroke="#064372" stroke-width="2"/>
<path d="M137 0.149902L-13 60.1499" stroke="#064372" stroke-width="2"/>
<path d="M137 15.1499L-13 75.1499" stroke="#064372" stroke-width="2"/>
<path d="M137 30.1499L-13 90.1499" stroke="#064372" stroke-width="2"/>
<path d="M137 45.1499L-13 105.15" stroke="#064372" stroke-width="2"/>
<path d="M137 60.1499L-13 120.15" stroke="#064372" stroke-width="2"/>
<path d="M137 75.1499L-13 135.15" stroke="#064372" stroke-width="2"/>
<path d="M137 90.1499L-13 150.15" stroke="#064372" stroke-width="2"/>
<path d="M137 105.15L-13 165.15" stroke="#064372" stroke-width="2"/>
<path d="M137 120.15L-13 180.15" stroke="#064372" stroke-width="2"/>
<path d="M137 135.15L-13 195.15" stroke="#064372" stroke-width="2"/>
<path d="M137 150.15L-13 210.15" stroke="#064372" stroke-width="2"/>
<path d="M137 165.15L-13 225.15" stroke="#064372" stroke-width="2"/>
<path d="M137 180.15L-13 240.15" stroke="#064372" stroke-width="2"/>
<path d="M137 195.15L-13 255.15" stroke="#064372" stroke-width="2"/>
<path d="M137 210.15L-13 270.15" stroke="#064372" stroke-width="2"/>
<path d="M137 225.15L-13 285.15" stroke="#064372" stroke-width="2"/>
<path d="M137 240.15L-13 300.15" stroke="#064372" stroke-width="2"/>
<path d="M137 255.15L-13 315.15" stroke="#064372" stroke-width="2"/>
<path d="M137 270.15L-13 330.15" stroke="#064372" stroke-width="2"/>
<path d="M137 285.15L-13 345.15" stroke="#064372" stroke-width="2"/>
<path d="M137 300.15L-13 360.15" stroke="#064372" stroke-width="2"/>
<path d="M137 315.15L-13 375.15" stroke="#064372" stroke-width="2"/>
<path d="M137 330.15L-13 390.15" stroke="#064372" stroke-width="2"/>
<path d="M137 345.15L-13 405.15" stroke="#064372" stroke-width="2"/>
<path d="M137 360.15L-13 420.15" stroke="#064372" stroke-width="2"/>
<path d="M137 375.15L-13 435.15" stroke="#064372" stroke-width="2"/>
</g>
</svg>
