<svg width="302" height="55" viewBox="0 0 302 55" fill="none" xmlns="http://www.w3.org/2000/svg">
<path d="M75.096 10.224H51.768V22.536C52.776 21.288 54.216 20.28 56.088 19.512C57.96 18.696 59.952 18.288 62.064 18.288C65.904 18.288 69.048 19.128 71.496 20.808C73.944 22.488 75.72 24.648 76.824 27.288C77.928 29.88 78.48 32.664 78.48 35.64C78.48 41.16 76.896 45.6 73.728 48.96C70.608 52.32 66.144 54 60.336 54C54.864 54 50.496 52.632 47.232 49.896C43.968 47.16 42.12 43.584 41.688 39.168H51.48C51.912 41.088 52.872 42.624 54.36 43.776C55.896 44.928 57.84 45.504 60.192 45.504C63.024 45.504 65.16 44.616 66.6 42.84C68.04 41.064 68.76 38.712 68.76 35.784C68.76 32.808 68.016 30.552 66.528 29.016C65.088 27.432 62.952 26.64 60.12 26.64C58.104 26.64 56.424 27.144 55.08 28.152C53.736 29.16 52.776 30.504 52.2 32.184H42.552V1.36803H75.096V10.224Z" fill="url(#paint0_linear)"/>
<path d="M86.1519 27.072C86.1519 18.768 87.6399 12.264 90.6159 7.56003C93.6399 2.85603 98.6319 0.504028 105.592 0.504028C112.552 0.504028 117.52 2.85603 120.496 7.56003C123.52 12.264 125.032 18.768 125.032 27.072C125.032 35.424 123.52 41.976 120.496 46.728C117.52 51.48 112.552 53.856 105.592 53.856C98.6319 53.856 93.6399 51.48 90.6159 46.728C87.6399 41.976 86.1519 35.424 86.1519 27.072ZM115.096 27.072C115.096 23.52 114.856 20.544 114.376 18.144C113.944 15.696 113.032 13.704 111.64 12.168C110.296 10.632 108.28 9.86403 105.592 9.86403C102.904 9.86403 100.864 10.632 99.4719 12.168C98.1279 13.704 97.2159 15.696 96.7359 18.144C96.3039 20.544 96.0879 23.52 96.0879 27.072C96.0879 30.72 96.3039 33.792 96.7359 36.288C97.1679 38.736 98.0799 40.728 99.4719 42.264C100.864 43.752 102.904 44.496 105.592 44.496C108.28 44.496 110.32 43.752 111.712 42.264C113.104 40.728 114.016 38.736 114.448 36.288C114.88 33.792 115.096 30.72 115.096 27.072Z" fill="url(#paint1_linear)"/>
<path d="M132.699 27.072C132.699 18.768 134.187 12.264 137.163 7.56003C140.187 2.85603 145.179 0.504028 152.139 0.504028C159.099 0.504028 164.067 2.85603 167.043 7.56003C170.067 12.264 171.579 18.768 171.579 27.072C171.579 35.424 170.067 41.976 167.043 46.728C164.067 51.48 159.099 53.856 152.139 53.856C145.179 53.856 140.187 51.48 137.163 46.728C134.187 41.976 132.699 35.424 132.699 27.072ZM161.643 27.072C161.643 23.52 161.403 20.544 160.923 18.144C160.491 15.696 159.579 13.704 158.187 12.168C156.843 10.632 154.827 9.86403 152.139 9.86403C149.451 9.86403 147.411 10.632 146.019 12.168C144.675 13.704 143.763 15.696 143.283 18.144C142.851 20.544 142.635 23.52 142.635 27.072C142.635 30.72 142.851 33.792 143.283 36.288C143.715 38.736 144.627 40.728 146.019 42.264C147.411 43.752 149.451 44.496 152.139 44.496C154.827 44.496 156.867 43.752 158.259 42.264C159.651 40.728 160.563 38.736 160.995 36.288C161.427 33.792 161.643 30.72 161.643 27.072Z" fill="url(#paint2_linear)"/>
<path d="M179.246 27.072C179.246 18.768 180.734 12.264 183.71 7.56003C186.734 2.85603 191.726 0.504028 198.686 0.504028C205.646 0.504028 210.614 2.85603 213.59 7.56003C216.614 12.264 218.126 18.768 218.126 27.072C218.126 35.424 216.614 41.976 213.59 46.728C210.614 51.48 205.646 53.856 198.686 53.856C191.726 53.856 186.734 51.48 183.71 46.728C180.734 41.976 179.246 35.424 179.246 27.072ZM208.19 27.072C208.19 23.52 207.95 20.544 207.47 18.144C207.038 15.696 206.126 13.704 204.734 12.168C203.39 10.632 201.374 9.86403 198.686 9.86403C195.998 9.86403 193.958 10.632 192.566 12.168C191.222 13.704 190.31 15.696 189.83 18.144C189.398 20.544 189.182 23.52 189.182 27.072C189.182 30.72 189.398 33.792 189.83 36.288C190.262 38.736 191.174 40.728 192.566 42.264C193.958 43.752 195.998 44.496 198.686 44.496C201.374 44.496 203.414 43.752 204.806 42.264C206.198 40.728 207.11 38.736 207.542 36.288C207.974 33.792 208.19 30.72 208.19 27.072Z" fill="url(#paint3_linear)"/>
<path d="M236.185 46.92H231.649V51.576H228.481V46.92H223.945V43.992H228.481V39.336H231.649V43.992H236.185V46.92Z" fill="url(#paint4_linear)"/>
<path d="M257.187 42.288C256.803 41.584 256.275 41.048 255.603 40.68C254.931 40.312 254.147 40.128 253.251 40.128C252.259 40.128 251.379 40.352 250.611 40.8C249.843 41.248 249.243 41.888 248.811 42.72C248.379 43.552 248.163 44.512 248.163 45.6C248.163 46.72 248.379 47.696 248.811 48.528C249.259 49.36 249.875 50 250.659 50.448C251.443 50.896 252.355 51.12 253.395 51.12C254.675 51.12 255.723 50.784 256.539 50.112C257.355 49.424 257.891 48.472 258.147 47.256H252.387V44.688H261.459V47.616C261.235 48.784 260.755 49.864 260.019 50.856C259.283 51.848 258.331 52.648 257.163 53.256C256.011 53.848 254.715 54.144 253.275 54.144C251.659 54.144 250.195 53.784 248.883 53.064C247.587 52.328 246.563 51.312 245.811 50.016C245.075 48.72 244.707 47.248 244.707 45.6C244.707 43.952 245.075 42.48 245.811 41.184C246.563 39.872 247.587 38.856 248.883 38.136C250.195 37.4 251.651 37.032 253.251 37.032C255.139 37.032 256.779 37.496 258.171 38.424C259.563 39.336 260.523 40.624 261.051 42.288H257.187Z" fill="url(#paint5_linear)"/>
<path d="M269.729 54.168C268.561 54.168 267.505 53.968 266.561 53.568C265.633 53.168 264.897 52.592 264.353 51.84C263.809 51.088 263.529 50.2 263.513 49.176H267.113C267.161 49.864 267.401 50.408 267.833 50.808C268.281 51.208 268.889 51.408 269.657 51.408C270.441 51.408 271.057 51.224 271.505 50.856C271.953 50.472 272.177 49.976 272.177 49.368C272.177 48.872 272.025 48.464 271.721 48.144C271.417 47.824 271.033 47.576 270.569 47.4C270.121 47.208 269.497 47 268.697 46.776C267.609 46.456 266.721 46.144 266.033 45.84C265.361 45.52 264.777 45.048 264.281 44.424C263.801 43.784 263.561 42.936 263.561 41.88C263.561 40.888 263.809 40.024 264.305 39.288C264.801 38.552 265.497 37.992 266.393 37.608C267.289 37.208 268.313 37.008 269.465 37.008C271.193 37.008 272.593 37.432 273.665 38.28C274.753 39.112 275.353 40.28 275.465 41.784H271.769C271.737 41.208 271.489 40.736 271.025 40.368C270.577 39.984 269.977 39.792 269.225 39.792C268.569 39.792 268.041 39.96 267.641 40.296C267.257 40.632 267.065 41.12 267.065 41.76C267.065 42.208 267.209 42.584 267.497 42.888C267.801 43.176 268.169 43.416 268.601 43.608C269.049 43.784 269.673 43.992 270.473 44.232C271.561 44.552 272.449 44.872 273.137 45.192C273.825 45.512 274.417 45.992 274.913 46.632C275.409 47.272 275.657 48.112 275.657 49.152C275.657 50.048 275.425 50.88 274.961 51.648C274.497 52.416 273.817 53.032 272.921 53.496C272.025 53.944 270.961 54.168 269.729 54.168Z" fill="url(#paint6_linear)"/>
<path d="M289.97 37.248V39.96H285.506V54H282.146V39.96H277.682V37.248H289.97Z" fill="url(#paint7_linear)"/>
<path d="M300.342 37.536L301.542 39.696L298.422 40.824L301.542 41.952L300.294 44.184L297.702 42.048L298.254 45.36H295.758L296.286 42.048L293.718 44.232L292.398 41.928L295.518 40.8L292.422 39.72L293.646 37.512L296.31 39.624L295.758 36.288H298.278L297.702 39.624L300.342 37.536Z" fill="url(#paint8_linear)"/>
<path d="M27.7682 13.9949V9H0V13.9949H8.83533C12.1221 13.9949 14.8964 16.0877 15.9415 18.9898H0V23.9847H15.9415C15.4233 25.4412 14.462 26.7034 13.1896 27.5978C11.9172 28.4921 10.3962 28.9748 8.83533 28.9795H0V35.0084L14.1012 48.9591H21.2401L6.09385 33.9744H8.83533C11.7433 33.9706 14.561 32.9748 16.8134 31.1551C19.0657 29.3353 20.6149 26.8028 21.1997 23.9847H27.7682V18.9898H21.1997C20.8128 17.1721 20.0154 15.4646 18.8672 13.9949H27.7682Z" fill="url(#paint9_linear)"/>
<defs>
<linearGradient id="paint0_linear" x1="259" y1="54" x2="33.453" y2="-21.7388" gradientUnits="userSpaceOnUse">
<stop offset="0.216359" stop-color="#45108A"/>
<stop offset="0.692117" stop-color="#3D065F"/>
<stop offset="1" stop-color="#10054D"/>
</linearGradient>
<linearGradient id="paint1_linear" x1="259" y1="54" x2="33.453" y2="-21.7388" gradientUnits="userSpaceOnUse">
<stop offset="0.216359" stop-color="#45108A"/>
<stop offset="0.692117" stop-color="#3D065F"/>
<stop offset="1" stop-color="#10054D"/>
</linearGradient>
<linearGradient id="paint2_linear" x1="259" y1="54" x2="33.453" y2="-21.7388" gradientUnits="userSpaceOnUse">
<stop offset="0.216359" stop-color="#45108A"/>
<stop offset="0.692117" stop-color="#3D065F"/>
<stop offset="1" stop-color="#10054D"/>
</linearGradient>
<linearGradient id="paint3_linear" x1="259" y1="54" x2="33.453" y2="-21.7388" gradientUnits="userSpaceOnUse">
<stop offset="0.216359" stop-color="#45108A"/>
<stop offset="0.692117" stop-color="#3D065F"/>
<stop offset="1" stop-color="#10054D"/>
</linearGradient>
<linearGradient id="paint4_linear" x1="259" y1="54" x2="33.453" y2="-21.7388" gradientUnits="userSpaceOnUse">
<stop offset="0.216359" stop-color="#45108A"/>
<stop offset="0.692117" stop-color="#3D065F"/>
<stop offset="1" stop-color="#10054D"/>
</linearGradient>
<linearGradient id="paint5_linear" x1="259" y1="54" x2="33.453" y2="-21.7388" gradientUnits="userSpaceOnUse">
<stop offset="0.216359" stop-color="#45108A"/>
<stop offset="0.692117" stop-color="#3D065F"/>
<stop offset="1" stop-color="#10054D"/>
</linearGradient>
<linearGradient id="paint6_linear" x1="259" y1="54" x2="33.453" y2="-21.7388" gradientUnits="userSpaceOnUse">
<stop offset="0.216359" stop-color="#45108A"/>
<stop offset="0.692117" stop-color="#3D065F"/>
<stop offset="1" stop-color="#10054D"/>
</linearGradient>
<linearGradient id="paint7_linear" x1="259" y1="54" x2="33.453" y2="-21.7388" gradientUnits="userSpaceOnUse">
<stop offset="0.216359" stop-color="#45108A"/>
<stop offset="0.692117" stop-color="#3D065F"/>
<stop offset="1" stop-color="#10054D"/>
</linearGradient>
<linearGradient id="paint8_linear" x1="259" y1="54" x2="33.453" y2="-21.7388" gradientUnits="userSpaceOnUse">
<stop offset="0.216359" stop-color="#45108A"/>
<stop offset="0.692117" stop-color="#3D065F"/>
<stop offset="1" stop-color="#10054D"/>
</linearGradient>
<linearGradient id="paint9_linear" x1="25.5601" y1="58.2285" x2="-9.88348" y2="50.1426" gradientUnits="userSpaceOnUse">
<stop offset="0.02" stop-color="#45108A"/>
<stop offset="0.29" stop-color="#3D065F"/>
<stop offset="1" stop-color="#10054D"/>
</linearGradient>
</defs>
</svg>
