<svg width="121" height="121" viewBox="0 0 121 121" fill="none" xmlns="http://www.w3.org/2000/svg">
<path d="M121 0V121C121 121 103.508 66.2781 78.5 41.5C53.8669 17.0936 0 0 0 0H121Z" fill="url(#paint0_linear)"/>
<path d="M120.982 115.372C120.982 115.372 117.785 54.183 91.5 29C69.3893 7.81655 20.4188 0.310951 20.4188 0.310951L120.982 -2.28882e-05V115.372Z" fill="url(#paint1_linear)"/>
<defs>
<linearGradient id="paint0_linear" x1="111.378" y1="-28.3597" x2="-35.3531" y2="19.7169" gradientUnits="userSpaceOnUse">
<stop offset="0.02" stop-color="#45108A"/>
<stop offset="0.29" stop-color="#3D065F"/>
<stop offset="1" stop-color="#10054D"/>
</linearGradient>
<linearGradient id="paint1_linear" x1="28.2569" y1="-16.0224" x2="138.273" y2="36.6305" gradientUnits="userSpaceOnUse">
<stop offset="0.02" stop-color="#45108A"/>
<stop offset="0.5625" stop-color="#3D065F"/>
<stop offset="1" stop-color="#10054D"/>
</linearGradient>
</defs>
</svg>
