<svg width="144" height="101" viewBox="0 0 144 101" fill="none" xmlns="http://www.w3.org/2000/svg">
<g opacity="0.4">
<path d="M-127.406 -29.6223L7.95427 -117.813" stroke="#D7ACAB" stroke-width="2"/>
<path d="M-115.137 -20.9944L20.2238 -109.185" stroke="#D7ACAB" stroke-width="2"/>
<path d="M-102.866 -12.3665L32.4943 -100.557" stroke="#D7ACAB" stroke-width="2"/>
<path d="M-90.5957 -3.73853L44.7648 -91.9288" stroke="#D7ACAB" stroke-width="2"/>
<path d="M-78.3262 4.8894L57.0343 -83.3009" stroke="#D7ACAB" stroke-width="2"/>
<path d="M-66.0557 13.5173L69.3049 -74.673" stroke="#D7ACAB" stroke-width="2"/>
<path d="M-53.7852 22.1453L81.5754 -66.045" stroke="#D7ACAB" stroke-width="2"/>
<path d="M-41.5156 30.7734L93.8449 -57.4169" stroke="#D7ACAB" stroke-width="2"/>
<path d="M-29.2451 39.4014L106.115 -48.7889" stroke="#D7ACAB" stroke-width="2"/>
<path d="M-16.9746 48.0293L118.386 -40.161" stroke="#D7ACAB" stroke-width="2"/>
<path d="M-4.7041 56.6572L130.656 -31.5331" stroke="#D7ACAB" stroke-width="2"/>
<path d="M7.56543 65.2852L142.926 -22.9052" stroke="#D7ACAB" stroke-width="2"/>
</g>
</svg>
