<svg width="59" height="35" viewBox="0 0 59 35" fill="none" xmlns="http://www.w3.org/2000/svg">
<path d="M0 0H41.5C51.165 0 59 7.83502 59 17.5C59 27.165 51.165 35 41.5 35H0V0Z" fill="#BD3333"/>
</svg>
